{
  "output_names": [
    "label_mu",
    "label_el",
    "label_taup_1h0p",
    "label_taup_1h1p",
    "label_taup_1h2p",
    "label_taup_3h0p",
    "label_taup_3h1p",
    "label_taum_1h0p",
    "label_taum_1h1p",
    "label_taum_1h2p",
    "label_taum_3h0p",
    "label_taum_3h1p",
    "label_b",
    "label_c",
    "label_uds",
    "label_g",
    "target_pt",
    "target_pt_q16",
    "target_pt_q84",
    "target_pt_nu"
  ],
  "input_names": [
    "pf_features",
    "pf_vectors",
    "pf_mask",
    "sv_features",
    "sv_vectors",
    "sv_mask",
    "lt_features",
    "lt_vectors",
    "lt_mask"
  ],
  "pf_features": {
    "var_names": [
      "jet_pfcand_pt_log",
      "jet_pfcand_energy_log",
      "jet_pfcand_eta",
      "jet_pfcand_deta",
      "jet_pfcand_dphi",
      "jet_pfcand_charge",
      "jet_pfcand_frompv",
      "jet_pfcand_nlostinnerhits",
      "jet_pfcand_track_chi2",
      "jet_pfcand_track_qual",
      "jet_pfcand_dz",
      "jet_pfcand_dzsig",
      "jet_pfcand_dxy",
      "jet_pfcand_dxysig",
      "jet_pfcand_etarel",
      "jet_pfcand_pperp_ratio",
      "jet_pfcand_ppara_ratio",
      "jet_pfcand_trackjet_d3d",
      "jet_pfcand_trackjet_d3dsig",
      "jet_pfcand_trackjet_dist",
      "jet_pfcand_trackjet_decayL",
      "jet_pfcand_npixhits",
      "jet_pfcand_nstriphits",
      "jet_pfcand_id",
      "jet_pfcand_tau_signal",
      "jet_pfcand_hcalfraction",
      "jet_pfcand_calofraction",
      "jet_pfcand_muon_isglobal",
      "jet_pfcand_muon_chi2",
      "jet_pfcand_muon_segcomp",
      "jet_pfcand_muon_nvalidhit",
      "jet_pfcand_muon_nstation",
      "jet_pfcand_electron_detaIn",
      "jet_pfcand_electron_dphiIn",
      "jet_pfcand_electron_sigIetaIeta",
      "jet_pfcand_electron_sigIphiIphi",
      "jet_pfcand_electron_r9",
      "jet_pfcand_electron_convProb",
      "jet_pfcand_photon_sigIetaIeta",
      "jet_pfcand_photon_r9",
      "jet_pfcand_photon_eVeto"
    ],
    "var_infos": {
      "jet_pfcand_pt_log": {
        "median": 1,
        "norm_factor": 0.5,
        "replace_inf_value": 0,
        "lower_bound": -5,
        "upper_bound": 5,
        "pad": 0
      },
      "jet_pfcand_energy_log": {
        "median": 1,
        "norm_factor": 0.5,
        "replace_inf_value": 0,
        "lower_bound": -5,
        "upper_bound": 5,
        "pad": 0
      },
      "jet_pfcand_eta": {
        "median": 0,
        "norm_factor": 0.8,
        "replace_inf_value": 0,
        "lower_bound": -5,
        "upper_bound": 5,
        "pad": 0
      },
      "jet_pfcand_deta": {
        "median": 0,
        "norm_factor": 1,
        "replace_inf_value": 0,
        "lower_bound": -1e+32,
        "upper_bound": 1e+32,
        "pad": 0
      },
      "jet_pfcand_dphi": {
        "median": 0,
        "norm_factor": 1,
        "replace_inf_value": 0,
        "lower_bound": -1e+32,
        "upper_bound": 1e+32,
        "pad": 0
      },
      "jet_pfcand_charge": {
        "median": 0,
        "norm_factor": 1,
        "replace_inf_value": 0,
        "lower_bound": -1e+32,
        "upper_bound": 1e+32,
        "pad": 0
      },
      "jet_pfcand_frompv": {
        "median": 2,
        "norm_factor": 1,
        "replace_inf_value": 0,
        "lower_bound": -5,
        "upper_bound": 5,
        "pad": 0
      },
      "jet_pfcand_nlostinnerhits": {
        "median": 0,
        "norm_factor": 1,
        "replace_inf_value": 0,
        "lower_bound": -1e+32,
        "upper_bound": 1e+32,
        "pad": 0
      },
      "jet_pfcand_track_chi2": {
        "median": 1,
        "norm_factor": 0.2,
        "replace_inf_value": 0,
        "lower_bound": -5,
        "upper_bound": 5,
        "pad": 0
      },
      "jet_pfcand_track_qual": {
        "median": 0,
        "norm_factor": 0.2,
        "replace_inf_value": 0,
        "lower_bound": -5,
        "upper_bound": 5,
        "pad": 0
      },
      "jet_pfcand_dz": {
        "median": 0,
        "norm_factor": 0.1,
        "replace_inf_value": 0,
        "lower_bound": -10,
        "upper_bound": 10,
        "pad": 0
      },
      "jet_pfcand_dzsig": {
        "median": 0,
        "norm_factor": 0.01,
        "replace_inf_value": 0,
        "lower_bound": -5,
        "upper_bound": 5,
        "pad": 0
      },
      "jet_pfcand_dxy": {
        "median": 0,
        "norm_factor": 0.25,
        "replace_inf_value": 0,
        "lower_bound": -25,
        "upper_bound": 25,
        "pad": 0
      },
      "jet_pfcand_dxysig": {
        "median": 0.01,
        "norm_factor": 1,
        "replace_inf_value": 0,
        "lower_bound": -5,
        "upper_bound": 5,
        "pad": 0
      },
      "jet_pfcand_etarel": {
        "median": 1.5,
        "norm_factor": 0.5,
        "replace_inf_value": 0,
        "lower_bound": -5,
        "upper_bound": 5,
        "pad": 0
      },
      "jet_pfcand_pperp_ratio": {
        "median": 0,
        "norm_factor": 1,
        "replace_inf_value": 0,
        "lower_bound": -5,
        "upper_bound": 5,
        "pad": 0
      },
      "jet_pfcand_ppara_ratio": {
        "median": 0,
        "norm_factor": 1,
        "replace_inf_value": 0,
        "lower_bound": -5,
        "upper_bound": 5,
        "pad": 0
      },
      "jet_pfcand_trackjet_d3d": {
        "median": 0,
        "norm_factor": 0.1,
        "replace_inf_value": 0,
        "lower_bound": -5,
        "upper_bound": 5,
        "pad": 0
      },
      "jet_pfcand_trackjet_d3dsig": {
        "median": 0,
        "norm_factor": 0.005,
        "replace_inf_value": 0,
        "lower_bound": -5,
        "upper_bound": 5,
        "pad": 0
      },
      "jet_pfcand_trackjet_dist": {
        "median": 0,
        "norm_factor": 0.1,
        "replace_inf_value": 0,
        "lower_bound": -5,
        "upper_bound": 5,
        "pad": 0
      },
      "jet_pfcand_trackjet_decayL": {
        "median": 0,
        "norm_factor": 0.01,
        "replace_inf_value": 0,
        "lower_bound": -5,
        "upper_bound": 5,
        "pad": 0
      },
      "jet_pfcand_npixhits": {
        "median": 0,
        "norm_factor": 0.1,
        "replace_inf_value": 0,
        "lower_bound": -5,
        "upper_bound": 5,
        "pad": 0
      },
      "jet_pfcand_nstriphits": {
        "median": 0,
        "norm_factor": 0.1,
        "replace_inf_value": 0,
        "lower_bound": -5,
        "upper_bound": 5,
        "pad": 0
      },
      "jet_pfcand_id": {
        "median": 2,
        "norm_factor": 0.2,
        "replace_inf_value": 0,
        "lower_bound": -5,
        "upper_bound": 5,
        "pad": 0
      },
      "jet_pfcand_tau_signal": {
        "median": 0,
        "norm_factor": 1,
        "replace_inf_value": 0,
        "lower_bound": -1e+32,
        "upper_bound": 1e+32,
        "pad": 0
      },
      "jet_pfcand_hcalfraction": {
        "median": 0,
        "norm_factor": 1,
        "replace_inf_value": 0,
        "lower_bound": 0,
        "upper_bound": 1,
        "pad": 0
      },
      "jet_pfcand_calofraction": {
        "median": 0,
        "norm_factor": 1,
        "replace_inf_value": 0,
        "lower_bound": 0,
        "upper_bound": 5,
        "pad": 0
      },
      "jet_pfcand_muon_isglobal": {
        "median": 0,
        "norm_factor": 1,
        "replace_inf_value": 0,
        "lower_bound": -5,
        "upper_bound": 5,
        "pad": 0
      },
      "jet_pfcand_muon_chi2": {
        "median": 0,
        "norm_factor": 1,
        "replace_inf_value": 0,
        "lower_bound": -5,
        "upper_bound": 5,
        "pad": 0
      },
      "jet_pfcand_muon_segcomp": {
        "median": 0,
        "norm_factor": 1,
        "replace_inf_value": 0,
        "lower_bound": -5,
        "upper_bound": 5,
        "pad": 0
      },
      "jet_pfcand_muon_nvalidhit": {
        "median": 0,
        "norm_factor": 1,
        "replace_inf_value": 0,
        "lower_bound": -5,
        "upper_bound": 5,
        "pad": 0
      },
      "jet_pfcand_muon_nstation": {
        "median": 0,
        "norm_factor": 1,
        "replace_inf_value": 0,
        "lower_bound": -5,
        "upper_bound": 5,
        "pad": 0
      },
      "jet_pfcand_electron_detaIn": {
        "median": 0,
        "norm_factor": 25,
        "replace_inf_value": 0,
        "lower_bound": -5,
        "upper_bound": 5,
        "pad": 0
      },
      "jet_pfcand_electron_dphiIn": {
        "median": 0,
        "norm_factor": 25,
        "replace_inf_value": 0,
        "lower_bound": -5,
        "upper_bound": 5,
        "pad": 0
      },
      "jet_pfcand_electron_sigIetaIeta": {
        "median": 0.002,
        "norm_factor": 50,
        "replace_inf_value": 0,
        "lower_bound": -5,
        "upper_bound": 5,
        "pad": 0
      },
      "jet_pfcand_electron_sigIphiIphi": {
        "median": 0.001,
        "norm_factor": 100,
        "replace_inf_value": 0,
        "lower_bound": -5,
        "upper_bound": 5,
        "pad": 0
      },
      "jet_pfcand_electron_r9": {
        "median": 0,
        "norm_factor": 1,
        "replace_inf_value": 0,
        "lower_bound": 0,
        "upper_bound": 1,
        "pad": 0
      },
      "jet_pfcand_electron_convProb": {
        "median": 0,
        "norm_factor": 1,
        "replace_inf_value": 0,
        "lower_bound": -1e+32,
        "upper_bound": 1e+32,
        "pad": 0
      },
      "jet_pfcand_photon_sigIetaIeta": {
        "median": 0.002,
        "norm_factor": 50,
        "replace_inf_value": 0,
        "lower_bound": -5,
        "upper_bound": 5,
        "pad": 0
      },
      "jet_pfcand_photon_r9": {
        "median": 0,
        "norm_factor": 1,
        "replace_inf_value": 0,
        "lower_bound": 0,
        "upper_bound": 1,
        "pad": 0
      },
      "jet_pfcand_photon_eVeto": {
        "median": 0,
        "norm_factor": 1,
        "replace_inf_value": 0,
        "lower_bound": -1e+32,
        "upper_bound": 1e+32,
        "pad": 0
      }
    },
    "min_length": 1,
    "max_length": 50
  },
  "pf_vectors": {
    "var_names": [
      "jet_pfcand_px",
      "jet_pfcand_py",
      "jet_pfcand_pz",
      "jet_pfcand_energy"
    ],
    "var_infos": {
      "jet_pfcand_px": {
        "median": 0,
        "norm_factor": 1,
        "replace_inf_value": 0,
        "lower_bound": -1e+32,
        "upper_bound": 1e+32,
        "pad": 0
      },
      "jet_pfcand_py": {
        "median": 0,
        "norm_factor": 1,
        "replace_inf_value": 0,
        "lower_bound": -1e+32,
        "upper_bound": 1e+32,
        "pad": 0
      },
      "jet_pfcand_pz": {
        "median": 0,
        "norm_factor": 1,
        "replace_inf_value": 0,
        "lower_bound": -1e+32,
        "upper_bound": 1e+32,
        "pad": 0
      },
      "jet_pfcand_energy": {
        "median": 0,
        "norm_factor": 1,
        "replace_inf_value": 0,
        "lower_bound": -1e+32,
        "upper_bound": 1e+32,
        "pad": 0
      }
    },
    "min_length": 1,
    "max_length": 50
  },
  "pf_mask": {
    "var_names": [
      "pfcand_mask"
    ],
    "var_infos": {
      "pfcand_mask": {
        "median": 0,
        "norm_factor": 1,
        "replace_inf_value": 0,
        "lower_bound": -1e+32,
        "upper_bound": 1e+32,
        "pad": 0
      }
    },
    "min_length": 1,
    "max_length": 50
  },
  "sv_features": {
    "var_names": [
      "jet_sv_pt_log",
      "jet_sv_mass",
      "jet_sv_deta",
      "jet_sv_dphi",
      "jet_sv_ntrack",
      "jet_sv_chi2",
      "jet_sv_dxy",
      "jet_sv_dxysig",
      "jet_sv_d3d",
      "jet_sv_d3dsig"
    ],
    "var_infos": {
      "jet_sv_pt_log": {
        "median": 3,
        "norm_factor": 0.6,
        "replace_inf_value": 0,
        "lower_bound": -5,
        "upper_bound": 5,
        "pad": 0
      },
      "jet_sv_mass": {
        "median": 1.2,
        "norm_factor": 0.3,
        "replace_inf_value": 0,
        "lower_bound": -5,
        "upper_bound": 5,
        "pad": 0
      },
      "jet_sv_deta": {
        "median": 0,
        "norm_factor": 1,
        "replace_inf_value": 0,
        "lower_bound": -1e+32,
        "upper_bound": 1e+32,
        "pad": 0
      },
      "jet_sv_dphi": {
        "median": 0,
        "norm_factor": 1,
        "replace_inf_value": 0,
        "lower_bound": -1e+32,
        "upper_bound": 1e+32,
        "pad": 0
      },
      "jet_sv_ntrack": {
        "median": 3,
        "norm_factor": 1,
        "replace_inf_value": 0,
        "lower_bound": -5,
        "upper_bound": 5,
        "pad": 0
      },
      "jet_sv_chi2": {
        "median": 1,
        "norm_factor": 0.5,
        "replace_inf_value": 0,
        "lower_bound": -5,
        "upper_bound": 5,
        "pad": 0
      },
      "jet_sv_dxy": {
        "median": 0.2,
        "norm_factor": 0.25,
        "replace_inf_value": 0,
        "lower_bound": -5,
        "upper_bound": 5,
        "pad": 0
      },
      "jet_sv_dxysig": {
        "median": 7,
        "norm_factor": 0.02,
        "replace_inf_value": 0,
        "lower_bound": -5,
        "upper_bound": 5,
        "pad": 0
      },
      "jet_sv_d3d": {
        "median": 0.5,
        "norm_factor": 0.2,
        "replace_inf_value": 0,
        "lower_bound": -5,
        "upper_bound": 5,
        "pad": 0
      },
      "jet_sv_d3dsig": {
        "median": 7,
        "norm_factor": 0.02,
        "replace_inf_value": 0,
        "lower_bound": -5,
        "upper_bound": 5,
        "pad": 0
      }
    },
    "min_length": 1,
    "max_length": 5
  },
  "sv_vectors": {
    "var_names": [
      "jet_sv_px",
      "jet_sv_py",
      "jet_sv_pz",
      "jet_sv_energy"
    ],
    "var_infos": {
      "jet_sv_px": {
        "median": 0,
        "norm_factor": 1,
        "replace_inf_value": 0,
        "lower_bound": -1e+32,
        "upper_bound": 1e+32,
        "pad": 0
      },
      "jet_sv_py": {
        "median": 0,
        "norm_factor": 1,
        "replace_inf_value": 0,
        "lower_bound": -1e+32,
        "upper_bound": 1e+32,
        "pad": 0
      },
      "jet_sv_pz": {
        "median": 0,
        "norm_factor": 1,
        "replace_inf_value": 0,
        "lower_bound": -1e+32,
        "upper_bound": 1e+32,
        "pad": 0
      },
      "jet_sv_energy": {
        "median": 0,
        "norm_factor": 1,
        "replace_inf_value": 0,
        "lower_bound": -1e+32,
        "upper_bound": 1e+32,
        "pad": 0
      }
    },
    "min_length": 1,
    "max_length": 5
  },
  "sv_mask": {
    "var_names": [
      "sv_mask"
    ],
    "var_infos": {
      "sv_mask": {
        "median": 0,
        "norm_factor": 1,
        "replace_inf_value": 0,
        "lower_bound": -1e+32,
        "upper_bound": 1e+32,
        "pad": 0
      }
    },
    "min_length": 1,
    "max_length": 5
  },
  "lt_features": {
    "var_names": [
      "jet_losttrack_pt_log",
      "jet_losttrack_eta",
      "jet_losttrack_deta",
      "jet_losttrack_dphi",
      "jet_losttrack_charge",
      "jet_losttrack_frompv",
      "jet_losttrack_track_chi2",
      "jet_losttrack_track_qual",
      "jet_losttrack_dz",
      "jet_losttrack_dzsig",
      "jet_losttrack_dxy",
      "jet_losttrack_dxysig",
      "jet_losttrack_etarel",
      "jet_losttrack_trackjet_d3d",
      "jet_losttrack_trackjet_d3dsig",
      "jet_losttrack_trackjet_dist",
      "jet_losttrack_trackjet_decayL",
      "jet_losttrack_npixhits",
      "jet_losttrack_nstriphits"
    ],
    "var_infos": {
      "jet_losttrack_pt_log": {
        "median": 1,
        "norm_factor": 0.5,
        "replace_inf_value": 0,
        "lower_bound": -5,
        "upper_bound": 5,
        "pad": 0
      },
      "jet_losttrack_eta": {
        "median": 0,
        "norm_factor": 0.8,
        "replace_inf_value": 0,
        "lower_bound": -5,
        "upper_bound": 5,
        "pad": 0
      },
      "jet_losttrack_deta": {
        "median": 0,
        "norm_factor": 1,
        "replace_inf_value": 0,
        "lower_bound": -1e+32,
        "upper_bound": 1e+32,
        "pad": 0
      },
      "jet_losttrack_dphi": {
        "median": 0,
        "norm_factor": 1,
        "replace_inf_value": 0,
        "lower_bound": -1e+32,
        "upper_bound": 1e+32,
        "pad": 0
      },
      "jet_losttrack_charge": {
        "median": 0,
        "norm_factor": 1,
        "replace_inf_value": 0,
        "lower_bound": -1e+32,
        "upper_bound": 1e+32,
        "pad": 0
      },
      "jet_losttrack_frompv": {
        "median": 2,
        "norm_factor": 1,
        "replace_inf_value": 0,
        "lower_bound": -5,
        "upper_bound": 5,
        "pad": 0
      },
      "jet_losttrack_track_chi2": {
        "median": 1,
        "norm_factor": 0.2,
        "replace_inf_value": 0,
        "lower_bound": -5,
        "upper_bound": 5,
        "pad": 0
      },
      "jet_losttrack_track_qual": {
        "median": 0,
        "norm_factor": 0.2,
        "replace_inf_value": 0,
        "lower_bound": -5,
        "upper_bound": 5,
        "pad": 0
      },
      "jet_losttrack_dz": {
        "median": 0,
        "norm_factor": 0.1,
        "replace_inf_value": 0,
        "lower_bound": -10,
        "upper_bound": 10,
        "pad": 0
      },
      "jet_losttrack_dzsig": {
        "median": 0,
        "norm_factor": 0.01,
        "replace_inf_value": 0,
        "lower_bound": -5,
        "upper_bound": 5,
        "pad": 0
      },
      "jet_losttrack_dxy": {
        "median": 0,
        "norm_factor": 0.25,
        "replace_inf_value": 0,
        "lower_bound": -25,
        "upper_bound": 25,
        "pad": 0
      },
      "jet_losttrack_dxysig": {
        "median": 0.01,
        "norm_factor": 1,
        "replace_inf_value": 0,
        "lower_bound": -5,
        "upper_bound": 5,
        "pad": 0
      },
      "jet_losttrack_etarel": {
        "median": 1.5,
        "norm_factor": 0.5,
        "replace_inf_value": 0,
        "lower_bound": -5,
        "upper_bound": 5,
        "pad": 0
      },
      "jet_losttrack_trackjet_d3d": {
        "median": 0,
        "norm_factor": 0.1,
        "replace_inf_value": 0,
        "lower_bound": -5,
        "upper_bound": 5,
        "pad": 0
      },
      "jet_losttrack_trackjet_d3dsig": {
        "median": 0,
        "norm_factor": 0.005,
        "replace_inf_value": 0,
        "lower_bound": -5,
        "upper_bound": 5,
        "pad": 0
      },
      "jet_losttrack_trackjet_dist": {
        "median": 0,
        "norm_factor": 0.1,
        "replace_inf_value": 0,
        "lower_bound": -5,
        "upper_bound": 5,
        "pad": 0
      },
      "jet_losttrack_trackjet_decayL": {
        "median": 0,
        "norm_factor": 0.01,
        "replace_inf_value": 0,
        "lower_bound": -5,
        "upper_bound": 5,
        "pad": 0
      },
      "jet_losttrack_npixhits": {
        "median": 0,
        "norm_factor": 0.1,
        "replace_inf_value": 0,
        "lower_bound": -5,
        "upper_bound": 5,
        "pad": 0
      },
      "jet_losttrack_nstriphits": {
        "median": 0,
        "norm_factor": 0.1,
        "replace_inf_value": 0,
        "lower_bound": -5,
        "upper_bound": 5,
        "pad": 0
      }
    },
    "min_length": 1,
    "max_length": 5
  },
  "lt_vectors": {
    "var_names": [
      "jet_losttrack_px",
      "jet_losttrack_py",
      "jet_losttrack_pz",
      "jet_losttrack_energy"
    ],
    "var_infos": {
      "jet_losttrack_px": {
        "median": 0,
        "norm_factor": 1,
        "replace_inf_value": 0,
        "lower_bound": -1e+32,
        "upper_bound": 1e+32,
        "pad": 0
      },
      "jet_losttrack_py": {
        "median": 0,
        "norm_factor": 1,
        "replace_inf_value": 0,
        "lower_bound": -1e+32,
        "upper_bound": 1e+32,
        "pad": 0
      },
      "jet_losttrack_pz": {
        "median": 0,
        "norm_factor": 1,
        "replace_inf_value": 0,
        "lower_bound": -1e+32,
        "upper_bound": 1e+32,
        "pad": 0
      },
      "jet_losttrack_energy": {
        "median": 0,
        "norm_factor": 1,
        "replace_inf_value": 0,
        "lower_bound": -1e+32,
        "upper_bound": 1e+32,
        "pad": 0
      }
    },
    "min_length": 1,
    "max_length": 5
  },
  "lt_mask": {
    "var_names": [
      "lt_mask"
    ],
    "var_infos": {
      "lt_mask": {
        "median": 0,
        "norm_factor": 1,
        "replace_inf_value": 0,
        "lower_bound": -1e+32,
        "upper_bound": 1e+32,
        "pad": 0
      }
    },
    "min_length": 1,
    "max_length": 5
  }
}
