root://cms-xrd-global.cern.ch//store/user/friti/training_ntuples_parTv1_2024Jul31/TTToSemiLeptonic_TuneCP5_13TeV-powheg-pythia8/crab_20240731_103634/240731_083724/0000/tree_100.root
root://cms-xrd-global.cern.ch//store/user/friti/training_ntuples_parTv1_2024Jul31/TTToSemiLeptonic_TuneCP5_13TeV-powheg-pythia8/crab_20240731_103634/240731_083724/0000/tree_101.root
root://cms-xrd-global.cern.ch//store/user/friti/training_ntuples_parTv1_2024Jul31/TTToSemiLeptonic_TuneCP5_13TeV-powheg-pythia8/crab_20240731_103634/240731_083724/0000/tree_102.root
root://cms-xrd-global.cern.ch//store/user/friti/training_ntuples_parTv1_2024Jul31/TTToSemiLeptonic_TuneCP5_13TeV-powheg-pythia8/crab_20240731_103634/240731_083724/0000/tree_103.root
root://cms-xrd-global.cern.ch//store/user/friti/training_ntuples_parTv1_2024Jul31/TTToSemiLeptonic_TuneCP5_13TeV-powheg-pythia8/crab_20240731_103634/240731_083724/0000/tree_104.root
root://cms-xrd-global.cern.ch//store/user/friti/training_ntuples_parTv1_2024Jul31/TTToSemiLeptonic_TuneCP5_13TeV-powheg-pythia8/crab_20240731_103634/240731_083724/0000/tree_105.root
root://cms-xrd-global.cern.ch//store/user/friti/training_ntuples_parTv1_2024Jul31/TTToSemiLeptonic_TuneCP5_13TeV-powheg-pythia8/crab_20240731_103634/240731_083724/0000/tree_106.root
root://cms-xrd-global.cern.ch//store/user/friti/training_ntuples_parTv1_2024Jul31/TTToSemiLeptonic_TuneCP5_13TeV-powheg-pythia8/crab_20240731_103634/240731_083724/0000/tree_107.root
root://cms-xrd-global.cern.ch//store/user/friti/training_ntuples_parTv1_2024Jul31/TTToSemiLeptonic_TuneCP5_13TeV-powheg-pythia8/crab_20240731_103634/240731_083724/0000/tree_108.root
root://cms-xrd-global.cern.ch//store/user/friti/training_ntuples_parTv1_2024Jul31/TTToSemiLeptonic_TuneCP5_13TeV-powheg-pythia8/crab_20240731_103634/240731_083724/0000/tree_109.root
root://cms-xrd-global.cern.ch//store/user/friti/training_ntuples_parTv1_2024Jul31/TTToSemiLeptonic_TuneCP5_13TeV-powheg-pythia8/crab_20240731_103634/240731_083724/0000/tree_10.root
root://cms-xrd-global.cern.ch//store/user/friti/training_ntuples_parTv1_2024Jul31/TTToSemiLeptonic_TuneCP5_13TeV-powheg-pythia8/crab_20240731_103634/240731_083724/0000/tree_110.root
root://cms-xrd-global.cern.ch//store/user/friti/training_ntuples_parTv1_2024Jul31/TTToSemiLeptonic_TuneCP5_13TeV-powheg-pythia8/crab_20240731_103634/240731_083724/0000/tree_111.root
root://cms-xrd-global.cern.ch//store/user/friti/training_ntuples_parTv1_2024Jul31/TTToSemiLeptonic_TuneCP5_13TeV-powheg-pythia8/crab_20240731_103634/240731_083724/0000/tree_112.root
root://cms-xrd-global.cern.ch//store/user/friti/training_ntuples_parTv1_2024Jul31/TTToSemiLeptonic_TuneCP5_13TeV-powheg-pythia8/crab_20240731_103634/240731_083724/0000/tree_113.root
root://cms-xrd-global.cern.ch//store/user/friti/training_ntuples_parTv1_2024Jul31/TTToSemiLeptonic_TuneCP5_13TeV-powheg-pythia8/crab_20240731_103634/240731_083724/0000/tree_114.root
root://cms-xrd-global.cern.ch//store/user/friti/training_ntuples_parTv1_2024Jul31/TTToSemiLeptonic_TuneCP5_13TeV-powheg-pythia8/crab_20240731_103634/240731_083724/0000/tree_115.root
root://cms-xrd-global.cern.ch//store/user/friti/training_ntuples_parTv1_2024Jul31/TTToSemiLeptonic_TuneCP5_13TeV-powheg-pythia8/crab_20240731_103634/240731_083724/0000/tree_116.root
root://cms-xrd-global.cern.ch//store/user/friti/training_ntuples_parTv1_2024Jul31/TTToSemiLeptonic_TuneCP5_13TeV-powheg-pythia8/crab_20240731_103634/240731_083724/0000/tree_117.root
root://cms-xrd-global.cern.ch//store/user/friti/training_ntuples_parTv1_2024Jul31/TTToSemiLeptonic_TuneCP5_13TeV-powheg-pythia8/crab_20240731_103634/240731_083724/0000/tree_118.root
root://cms-xrd-global.cern.ch//store/user/friti/training_ntuples_parTv1_2024Jul31/TTToSemiLeptonic_TuneCP5_13TeV-powheg-pythia8/crab_20240731_103634/240731_083724/0000/tree_119.root
root://cms-xrd-global.cern.ch//store/user/friti/training_ntuples_parTv1_2024Jul31/TTToSemiLeptonic_TuneCP5_13TeV-powheg-pythia8/crab_20240731_103634/240731_083724/0000/tree_11.root
root://cms-xrd-global.cern.ch//store/user/friti/training_ntuples_parTv1_2024Jul31/TTToSemiLeptonic_TuneCP5_13TeV-powheg-pythia8/crab_20240731_103634/240731_083724/0000/tree_120.root
root://cms-xrd-global.cern.ch//store/user/friti/training_ntuples_parTv1_2024Jul31/TTToSemiLeptonic_TuneCP5_13TeV-powheg-pythia8/crab_20240731_103634/240731_083724/0000/tree_121.root
root://cms-xrd-global.cern.ch//store/user/friti/training_ntuples_parTv1_2024Jul31/TTToSemiLeptonic_TuneCP5_13TeV-powheg-pythia8/crab_20240731_103634/240731_083724/0000/tree_122.root
root://cms-xrd-global.cern.ch//store/user/friti/training_ntuples_parTv1_2024Jul31/TTToSemiLeptonic_TuneCP5_13TeV-powheg-pythia8/crab_20240731_103634/240731_083724/0000/tree_123.root
root://cms-xrd-global.cern.ch//store/user/friti/training_ntuples_parTv1_2024Jul31/TTToSemiLeptonic_TuneCP5_13TeV-powheg-pythia8/crab_20240731_103634/240731_083724/0000/tree_124.root
root://cms-xrd-global.cern.ch//store/user/friti/training_ntuples_parTv1_2024Jul31/TTToSemiLeptonic_TuneCP5_13TeV-powheg-pythia8/crab_20240731_103634/240731_083724/0000/tree_125.root
root://cms-xrd-global.cern.ch//store/user/friti/training_ntuples_parTv1_2024Jul31/TTToSemiLeptonic_TuneCP5_13TeV-powheg-pythia8/crab_20240731_103634/240731_083724/0000/tree_126.root
root://cms-xrd-global.cern.ch//store/user/friti/training_ntuples_parTv1_2024Jul31/TTToSemiLeptonic_TuneCP5_13TeV-powheg-pythia8/crab_20240731_103634/240731_083724/0000/tree_127.root
root://cms-xrd-global.cern.ch//store/user/friti/training_ntuples_parTv1_2024Jul31/TTToSemiLeptonic_TuneCP5_13TeV-powheg-pythia8/crab_20240731_103634/240731_083724/0000/tree_128.root
root://cms-xrd-global.cern.ch//store/user/friti/training_ntuples_parTv1_2024Jul31/TTToSemiLeptonic_TuneCP5_13TeV-powheg-pythia8/crab_20240731_103634/240731_083724/0000/tree_129.root
root://cms-xrd-global.cern.ch//store/user/friti/training_ntuples_parTv1_2024Jul31/TTToSemiLeptonic_TuneCP5_13TeV-powheg-pythia8/crab_20240731_103634/240731_083724/0000/tree_12.root
root://cms-xrd-global.cern.ch//store/user/friti/training_ntuples_parTv1_2024Jul31/TTToSemiLeptonic_TuneCP5_13TeV-powheg-pythia8/crab_20240731_103634/240731_083724/0000/tree_130.root
root://cms-xrd-global.cern.ch//store/user/friti/training_ntuples_parTv1_2024Jul31/TTToSemiLeptonic_TuneCP5_13TeV-powheg-pythia8/crab_20240731_103634/240731_083724/0000/tree_131.root
root://cms-xrd-global.cern.ch//store/user/friti/training_ntuples_parTv1_2024Jul31/TTToSemiLeptonic_TuneCP5_13TeV-powheg-pythia8/crab_20240731_103634/240731_083724/0000/tree_132.root
root://cms-xrd-global.cern.ch//store/user/friti/training_ntuples_parTv1_2024Jul31/TTToSemiLeptonic_TuneCP5_13TeV-powheg-pythia8/crab_20240731_103634/240731_083724/0000/tree_133.root
root://cms-xrd-global.cern.ch//store/user/friti/training_ntuples_parTv1_2024Jul31/TTToSemiLeptonic_TuneCP5_13TeV-powheg-pythia8/crab_20240731_103634/240731_083724/0000/tree_134.root
root://cms-xrd-global.cern.ch//store/user/friti/training_ntuples_parTv1_2024Jul31/TTToSemiLeptonic_TuneCP5_13TeV-powheg-pythia8/crab_20240731_103634/240731_083724/0000/tree_135.root
root://cms-xrd-global.cern.ch//store/user/friti/training_ntuples_parTv1_2024Jul31/TTToSemiLeptonic_TuneCP5_13TeV-powheg-pythia8/crab_20240731_103634/240731_083724/0000/tree_136.root
root://cms-xrd-global.cern.ch//store/user/friti/training_ntuples_parTv1_2024Jul31/TTToSemiLeptonic_TuneCP5_13TeV-powheg-pythia8/crab_20240731_103634/240731_083724/0000/tree_137.root
root://cms-xrd-global.cern.ch//store/user/friti/training_ntuples_parTv1_2024Jul31/TTToSemiLeptonic_TuneCP5_13TeV-powheg-pythia8/crab_20240731_103634/240731_083724/0000/tree_138.root
root://cms-xrd-global.cern.ch//store/user/friti/training_ntuples_parTv1_2024Jul31/TTToSemiLeptonic_TuneCP5_13TeV-powheg-pythia8/crab_20240731_103634/240731_083724/0000/tree_139.root
root://cms-xrd-global.cern.ch//store/user/friti/training_ntuples_parTv1_2024Jul31/TTToSemiLeptonic_TuneCP5_13TeV-powheg-pythia8/crab_20240731_103634/240731_083724/0000/tree_13.root
root://cms-xrd-global.cern.ch//store/user/friti/training_ntuples_parTv1_2024Jul31/TTToSemiLeptonic_TuneCP5_13TeV-powheg-pythia8/crab_20240731_103634/240731_083724/0000/tree_140.root
root://cms-xrd-global.cern.ch//store/user/friti/training_ntuples_parTv1_2024Jul31/TTToSemiLeptonic_TuneCP5_13TeV-powheg-pythia8/crab_20240731_103634/240731_083724/0000/tree_141.root
root://cms-xrd-global.cern.ch//store/user/friti/training_ntuples_parTv1_2024Jul31/TTToSemiLeptonic_TuneCP5_13TeV-powheg-pythia8/crab_20240731_103634/240731_083724/0000/tree_142.root
root://cms-xrd-global.cern.ch//store/user/friti/training_ntuples_parTv1_2024Jul31/TTToSemiLeptonic_TuneCP5_13TeV-powheg-pythia8/crab_20240731_103634/240731_083724/0000/tree_143.root
root://cms-xrd-global.cern.ch//store/user/friti/training_ntuples_parTv1_2024Jul31/TTToSemiLeptonic_TuneCP5_13TeV-powheg-pythia8/crab_20240731_103634/240731_083724/0000/tree_144.root
root://cms-xrd-global.cern.ch//store/user/friti/training_ntuples_parTv1_2024Jul31/TTToSemiLeptonic_TuneCP5_13TeV-powheg-pythia8/crab_20240731_103634/240731_083724/0000/tree_145.root
root://cms-xrd-global.cern.ch//store/user/friti/training_ntuples_parTv1_2024Jul31/TTToSemiLeptonic_TuneCP5_13TeV-powheg-pythia8/crab_20240731_103634/240731_083724/0000/tree_146.root
root://cms-xrd-global.cern.ch//store/user/friti/training_ntuples_parTv1_2024Jul31/TTToSemiLeptonic_TuneCP5_13TeV-powheg-pythia8/crab_20240731_103634/240731_083724/0000/tree_147.root
root://cms-xrd-global.cern.ch//store/user/friti/training_ntuples_parTv1_2024Jul31/TTToSemiLeptonic_TuneCP5_13TeV-powheg-pythia8/crab_20240731_103634/240731_083724/0000/tree_148.root
root://cms-xrd-global.cern.ch//store/user/friti/training_ntuples_parTv1_2024Jul31/TTToSemiLeptonic_TuneCP5_13TeV-powheg-pythia8/crab_20240731_103634/240731_083724/0000/tree_149.root
root://cms-xrd-global.cern.ch//store/user/friti/training_ntuples_parTv1_2024Jul31/TTToSemiLeptonic_TuneCP5_13TeV-powheg-pythia8/crab_20240731_103634/240731_083724/0000/tree_14.root
root://cms-xrd-global.cern.ch//store/user/friti/training_ntuples_parTv1_2024Jul31/TTToSemiLeptonic_TuneCP5_13TeV-powheg-pythia8/crab_20240731_103634/240731_083724/0000/tree_150.root
root://cms-xrd-global.cern.ch//store/user/friti/training_ntuples_parTv1_2024Jul31/TTToSemiLeptonic_TuneCP5_13TeV-powheg-pythia8/crab_20240731_103634/240731_083724/0000/tree_151.root
root://cms-xrd-global.cern.ch//store/user/friti/training_ntuples_parTv1_2024Jul31/TTToSemiLeptonic_TuneCP5_13TeV-powheg-pythia8/crab_20240731_103634/240731_083724/0000/tree_152.root
root://cms-xrd-global.cern.ch//store/user/friti/training_ntuples_parTv1_2024Jul31/TTToSemiLeptonic_TuneCP5_13TeV-powheg-pythia8/crab_20240731_103634/240731_083724/0000/tree_153.root
root://cms-xrd-global.cern.ch//store/user/friti/training_ntuples_parTv1_2024Jul31/TTToSemiLeptonic_TuneCP5_13TeV-powheg-pythia8/crab_20240731_103634/240731_083724/0000/tree_154.root
root://cms-xrd-global.cern.ch//store/user/friti/training_ntuples_parTv1_2024Jul31/TTToSemiLeptonic_TuneCP5_13TeV-powheg-pythia8/crab_20240731_103634/240731_083724/0000/tree_155.root
root://cms-xrd-global.cern.ch//store/user/friti/training_ntuples_parTv1_2024Jul31/TTToSemiLeptonic_TuneCP5_13TeV-powheg-pythia8/crab_20240731_103634/240731_083724/0000/tree_156.root
root://cms-xrd-global.cern.ch//store/user/friti/training_ntuples_parTv1_2024Jul31/TTToSemiLeptonic_TuneCP5_13TeV-powheg-pythia8/crab_20240731_103634/240731_083724/0000/tree_157.root
root://cms-xrd-global.cern.ch//store/user/friti/training_ntuples_parTv1_2024Jul31/TTToSemiLeptonic_TuneCP5_13TeV-powheg-pythia8/crab_20240731_103634/240731_083724/0000/tree_158.root
root://cms-xrd-global.cern.ch//store/user/friti/training_ntuples_parTv1_2024Jul31/TTToSemiLeptonic_TuneCP5_13TeV-powheg-pythia8/crab_20240731_103634/240731_083724/0000/tree_159.root
root://cms-xrd-global.cern.ch//store/user/friti/training_ntuples_parTv1_2024Jul31/TTToSemiLeptonic_TuneCP5_13TeV-powheg-pythia8/crab_20240731_103634/240731_083724/0000/tree_15.root
root://cms-xrd-global.cern.ch//store/user/friti/training_ntuples_parTv1_2024Jul31/TTToSemiLeptonic_TuneCP5_13TeV-powheg-pythia8/crab_20240731_103634/240731_083724/0000/tree_160.root
root://cms-xrd-global.cern.ch//store/user/friti/training_ntuples_parTv1_2024Jul31/TTToSemiLeptonic_TuneCP5_13TeV-powheg-pythia8/crab_20240731_103634/240731_083724/0000/tree_161.root
root://cms-xrd-global.cern.ch//store/user/friti/training_ntuples_parTv1_2024Jul31/TTToSemiLeptonic_TuneCP5_13TeV-powheg-pythia8/crab_20240731_103634/240731_083724/0000/tree_162.root
root://cms-xrd-global.cern.ch//store/user/friti/training_ntuples_parTv1_2024Jul31/TTToSemiLeptonic_TuneCP5_13TeV-powheg-pythia8/crab_20240731_103634/240731_083724/0000/tree_163.root
root://cms-xrd-global.cern.ch//store/user/friti/training_ntuples_parTv1_2024Jul31/TTToSemiLeptonic_TuneCP5_13TeV-powheg-pythia8/crab_20240731_103634/240731_083724/0000/tree_164.root
root://cms-xrd-global.cern.ch//store/user/friti/training_ntuples_parTv1_2024Jul31/TTToSemiLeptonic_TuneCP5_13TeV-powheg-pythia8/crab_20240731_103634/240731_083724/0000/tree_165.root
root://cms-xrd-global.cern.ch//store/user/friti/training_ntuples_parTv1_2024Jul31/TTToSemiLeptonic_TuneCP5_13TeV-powheg-pythia8/crab_20240731_103634/240731_083724/0000/tree_166.root
root://cms-xrd-global.cern.ch//store/user/friti/training_ntuples_parTv1_2024Jul31/TTToSemiLeptonic_TuneCP5_13TeV-powheg-pythia8/crab_20240731_103634/240731_083724/0000/tree_167.root
root://cms-xrd-global.cern.ch//store/user/friti/training_ntuples_parTv1_2024Jul31/TTToSemiLeptonic_TuneCP5_13TeV-powheg-pythia8/crab_20240731_103634/240731_083724/0000/tree_168.root
root://cms-xrd-global.cern.ch//store/user/friti/training_ntuples_parTv1_2024Jul31/TTToSemiLeptonic_TuneCP5_13TeV-powheg-pythia8/crab_20240731_103634/240731_083724/0000/tree_169.root
root://cms-xrd-global.cern.ch//store/user/friti/training_ntuples_parTv1_2024Jul31/TTToSemiLeptonic_TuneCP5_13TeV-powheg-pythia8/crab_20240731_103634/240731_083724/0000/tree_16.root
root://cms-xrd-global.cern.ch//store/user/friti/training_ntuples_parTv1_2024Jul31/TTToSemiLeptonic_TuneCP5_13TeV-powheg-pythia8/crab_20240731_103634/240731_083724/0000/tree_170.root
root://cms-xrd-global.cern.ch//store/user/friti/training_ntuples_parTv1_2024Jul31/TTToSemiLeptonic_TuneCP5_13TeV-powheg-pythia8/crab_20240731_103634/240731_083724/0000/tree_171.root
root://cms-xrd-global.cern.ch//store/user/friti/training_ntuples_parTv1_2024Jul31/TTToSemiLeptonic_TuneCP5_13TeV-powheg-pythia8/crab_20240731_103634/240731_083724/0000/tree_172.root
root://cms-xrd-global.cern.ch//store/user/friti/training_ntuples_parTv1_2024Jul31/TTToSemiLeptonic_TuneCP5_13TeV-powheg-pythia8/crab_20240731_103634/240731_083724/0000/tree_173.root
root://cms-xrd-global.cern.ch//store/user/friti/training_ntuples_parTv1_2024Jul31/TTToSemiLeptonic_TuneCP5_13TeV-powheg-pythia8/crab_20240731_103634/240731_083724/0000/tree_174.root
root://cms-xrd-global.cern.ch//store/user/friti/training_ntuples_parTv1_2024Jul31/TTToSemiLeptonic_TuneCP5_13TeV-powheg-pythia8/crab_20240731_103634/240731_083724/0000/tree_175.root
root://cms-xrd-global.cern.ch//store/user/friti/training_ntuples_parTv1_2024Jul31/TTToSemiLeptonic_TuneCP5_13TeV-powheg-pythia8/crab_20240731_103634/240731_083724/0000/tree_176.root
root://cms-xrd-global.cern.ch//store/user/friti/training_ntuples_parTv1_2024Jul31/TTToSemiLeptonic_TuneCP5_13TeV-powheg-pythia8/crab_20240731_103634/240731_083724/0000/tree_177.root
root://cms-xrd-global.cern.ch//store/user/friti/training_ntuples_parTv1_2024Jul31/TTToSemiLeptonic_TuneCP5_13TeV-powheg-pythia8/crab_20240731_103634/240731_083724/0000/tree_178.root
root://cms-xrd-global.cern.ch//store/user/friti/training_ntuples_parTv1_2024Jul31/TTToSemiLeptonic_TuneCP5_13TeV-powheg-pythia8/crab_20240731_103634/240731_083724/0000/tree_179.root
root://cms-xrd-global.cern.ch//store/user/friti/training_ntuples_parTv1_2024Jul31/TTToSemiLeptonic_TuneCP5_13TeV-powheg-pythia8/crab_20240731_103634/240731_083724/0000/tree_17.root
root://cms-xrd-global.cern.ch//store/user/friti/training_ntuples_parTv1_2024Jul31/TTToSemiLeptonic_TuneCP5_13TeV-powheg-pythia8/crab_20240731_103634/240731_083724/0000/tree_180.root
root://cms-xrd-global.cern.ch//store/user/friti/training_ntuples_parTv1_2024Jul31/TTToSemiLeptonic_TuneCP5_13TeV-powheg-pythia8/crab_20240731_103634/240731_083724/0000/tree_181.root
root://cms-xrd-global.cern.ch//store/user/friti/training_ntuples_parTv1_2024Jul31/TTToSemiLeptonic_TuneCP5_13TeV-powheg-pythia8/crab_20240731_103634/240731_083724/0000/tree_182.root
root://cms-xrd-global.cern.ch//store/user/friti/training_ntuples_parTv1_2024Jul31/TTToSemiLeptonic_TuneCP5_13TeV-powheg-pythia8/crab_20240731_103634/240731_083724/0000/tree_183.root
root://cms-xrd-global.cern.ch//store/user/friti/training_ntuples_parTv1_2024Jul31/TTToSemiLeptonic_TuneCP5_13TeV-powheg-pythia8/crab_20240731_103634/240731_083724/0000/tree_184.root
root://cms-xrd-global.cern.ch//store/user/friti/training_ntuples_parTv1_2024Jul31/TTToSemiLeptonic_TuneCP5_13TeV-powheg-pythia8/crab_20240731_103634/240731_083724/0000/tree_185.root
root://cms-xrd-global.cern.ch//store/user/friti/training_ntuples_parTv1_2024Jul31/TTToSemiLeptonic_TuneCP5_13TeV-powheg-pythia8/crab_20240731_103634/240731_083724/0000/tree_186.root
root://cms-xrd-global.cern.ch//store/user/friti/training_ntuples_parTv1_2024Jul31/TTToSemiLeptonic_TuneCP5_13TeV-powheg-pythia8/crab_20240731_103634/240731_083724/0000/tree_187.root
root://cms-xrd-global.cern.ch//store/user/friti/training_ntuples_parTv1_2024Jul31/TTToSemiLeptonic_TuneCP5_13TeV-powheg-pythia8/crab_20240731_103634/240731_083724/0000/tree_188.root
root://cms-xrd-global.cern.ch//store/user/friti/training_ntuples_parTv1_2024Jul31/TTToSemiLeptonic_TuneCP5_13TeV-powheg-pythia8/crab_20240731_103634/240731_083724/0000/tree_189.root
root://cms-xrd-global.cern.ch//store/user/friti/training_ntuples_parTv1_2024Jul31/TTToSemiLeptonic_TuneCP5_13TeV-powheg-pythia8/crab_20240731_103634/240731_083724/0000/tree_18.root
root://cms-xrd-global.cern.ch//store/user/friti/training_ntuples_parTv1_2024Jul31/TTToSemiLeptonic_TuneCP5_13TeV-powheg-pythia8/crab_20240731_103634/240731_083724/0000/tree_190.root
root://cms-xrd-global.cern.ch//store/user/friti/training_ntuples_parTv1_2024Jul31/TTToSemiLeptonic_TuneCP5_13TeV-powheg-pythia8/crab_20240731_103634/240731_083724/0000/tree_191.root
root://cms-xrd-global.cern.ch//store/user/friti/training_ntuples_parTv1_2024Jul31/TTToSemiLeptonic_TuneCP5_13TeV-powheg-pythia8/crab_20240731_103634/240731_083724/0000/tree_192.root
root://cms-xrd-global.cern.ch//store/user/friti/training_ntuples_parTv1_2024Jul31/TTToSemiLeptonic_TuneCP5_13TeV-powheg-pythia8/crab_20240731_103634/240731_083724/0000/tree_193.root
root://cms-xrd-global.cern.ch//store/user/friti/training_ntuples_parTv1_2024Jul31/TTToSemiLeptonic_TuneCP5_13TeV-powheg-pythia8/crab_20240731_103634/240731_083724/0000/tree_194.root
root://cms-xrd-global.cern.ch//store/user/friti/training_ntuples_parTv1_2024Jul31/TTToSemiLeptonic_TuneCP5_13TeV-powheg-pythia8/crab_20240731_103634/240731_083724/0000/tree_195.root
root://cms-xrd-global.cern.ch//store/user/friti/training_ntuples_parTv1_2024Jul31/TTToSemiLeptonic_TuneCP5_13TeV-powheg-pythia8/crab_20240731_103634/240731_083724/0000/tree_196.root
root://cms-xrd-global.cern.ch//store/user/friti/training_ntuples_parTv1_2024Jul31/TTToSemiLeptonic_TuneCP5_13TeV-powheg-pythia8/crab_20240731_103634/240731_083724/0000/tree_197.root
root://cms-xrd-global.cern.ch//store/user/friti/training_ntuples_parTv1_2024Jul31/TTToSemiLeptonic_TuneCP5_13TeV-powheg-pythia8/crab_20240731_103634/240731_083724/0000/tree_198.root
root://cms-xrd-global.cern.ch//store/user/friti/training_ntuples_parTv1_2024Jul31/TTToSemiLeptonic_TuneCP5_13TeV-powheg-pythia8/crab_20240731_103634/240731_083724/0000/tree_199.root
root://cms-xrd-global.cern.ch//store/user/friti/training_ntuples_parTv1_2024Jul31/TTToSemiLeptonic_TuneCP5_13TeV-powheg-pythia8/crab_20240731_103634/240731_083724/0000/tree_19.root
root://cms-xrd-global.cern.ch//store/user/friti/training_ntuples_parTv1_2024Jul31/TTToSemiLeptonic_TuneCP5_13TeV-powheg-pythia8/crab_20240731_103634/240731_083724/0000/tree_1.root
root://cms-xrd-global.cern.ch//store/user/friti/training_ntuples_parTv1_2024Jul31/TTToSemiLeptonic_TuneCP5_13TeV-powheg-pythia8/crab_20240731_103634/240731_083724/0000/tree_200.root
root://cms-xrd-global.cern.ch//store/user/friti/training_ntuples_parTv1_2024Jul31/TTToSemiLeptonic_TuneCP5_13TeV-powheg-pythia8/crab_20240731_103634/240731_083724/0000/tree_20.root
root://cms-xrd-global.cern.ch//store/user/friti/training_ntuples_parTv1_2024Jul31/TTToSemiLeptonic_TuneCP5_13TeV-powheg-pythia8/crab_20240731_103634/240731_083724/0000/tree_21.root
root://cms-xrd-global.cern.ch//store/user/friti/training_ntuples_parTv1_2024Jul31/TTToSemiLeptonic_TuneCP5_13TeV-powheg-pythia8/crab_20240731_103634/240731_083724/0000/tree_22.root
root://cms-xrd-global.cern.ch//store/user/friti/training_ntuples_parTv1_2024Jul31/TTToSemiLeptonic_TuneCP5_13TeV-powheg-pythia8/crab_20240731_103634/240731_083724/0000/tree_23.root
root://cms-xrd-global.cern.ch//store/user/friti/training_ntuples_parTv1_2024Jul31/TTToSemiLeptonic_TuneCP5_13TeV-powheg-pythia8/crab_20240731_103634/240731_083724/0000/tree_24.root
root://cms-xrd-global.cern.ch//store/user/friti/training_ntuples_parTv1_2024Jul31/TTToSemiLeptonic_TuneCP5_13TeV-powheg-pythia8/crab_20240731_103634/240731_083724/0000/tree_25.root
root://cms-xrd-global.cern.ch//store/user/friti/training_ntuples_parTv1_2024Jul31/TTToSemiLeptonic_TuneCP5_13TeV-powheg-pythia8/crab_20240731_103634/240731_083724/0000/tree_26.root
root://cms-xrd-global.cern.ch//store/user/friti/training_ntuples_parTv1_2024Jul31/TTToSemiLeptonic_TuneCP5_13TeV-powheg-pythia8/crab_20240731_103634/240731_083724/0000/tree_27.root
root://cms-xrd-global.cern.ch//store/user/friti/training_ntuples_parTv1_2024Jul31/TTToSemiLeptonic_TuneCP5_13TeV-powheg-pythia8/crab_20240731_103634/240731_083724/0000/tree_28.root
root://cms-xrd-global.cern.ch//store/user/friti/training_ntuples_parTv1_2024Jul31/TTToSemiLeptonic_TuneCP5_13TeV-powheg-pythia8/crab_20240731_103634/240731_083724/0000/tree_29.root
root://cms-xrd-global.cern.ch//store/user/friti/training_ntuples_parTv1_2024Jul31/TTToSemiLeptonic_TuneCP5_13TeV-powheg-pythia8/crab_20240731_103634/240731_083724/0000/tree_2.root
root://cms-xrd-global.cern.ch//store/user/friti/training_ntuples_parTv1_2024Jul31/TTToSemiLeptonic_TuneCP5_13TeV-powheg-pythia8/crab_20240731_103634/240731_083724/0000/tree_30.root
root://cms-xrd-global.cern.ch//store/user/friti/training_ntuples_parTv1_2024Jul31/TTToSemiLeptonic_TuneCP5_13TeV-powheg-pythia8/crab_20240731_103634/240731_083724/0000/tree_31.root
root://cms-xrd-global.cern.ch//store/user/friti/training_ntuples_parTv1_2024Jul31/TTToSemiLeptonic_TuneCP5_13TeV-powheg-pythia8/crab_20240731_103634/240731_083724/0000/tree_32.root
root://cms-xrd-global.cern.ch//store/user/friti/training_ntuples_parTv1_2024Jul31/TTToSemiLeptonic_TuneCP5_13TeV-powheg-pythia8/crab_20240731_103634/240731_083724/0000/tree_33.root
root://cms-xrd-global.cern.ch//store/user/friti/training_ntuples_parTv1_2024Jul31/TTToSemiLeptonic_TuneCP5_13TeV-powheg-pythia8/crab_20240731_103634/240731_083724/0000/tree_34.root
root://cms-xrd-global.cern.ch//store/user/friti/training_ntuples_parTv1_2024Jul31/TTToSemiLeptonic_TuneCP5_13TeV-powheg-pythia8/crab_20240731_103634/240731_083724/0000/tree_35.root
root://cms-xrd-global.cern.ch//store/user/friti/training_ntuples_parTv1_2024Jul31/TTToSemiLeptonic_TuneCP5_13TeV-powheg-pythia8/crab_20240731_103634/240731_083724/0000/tree_36.root
root://cms-xrd-global.cern.ch//store/user/friti/training_ntuples_parTv1_2024Jul31/TTToSemiLeptonic_TuneCP5_13TeV-powheg-pythia8/crab_20240731_103634/240731_083724/0000/tree_37.root
root://cms-xrd-global.cern.ch//store/user/friti/training_ntuples_parTv1_2024Jul31/TTToSemiLeptonic_TuneCP5_13TeV-powheg-pythia8/crab_20240731_103634/240731_083724/0000/tree_38.root
root://cms-xrd-global.cern.ch//store/user/friti/training_ntuples_parTv1_2024Jul31/TTToSemiLeptonic_TuneCP5_13TeV-powheg-pythia8/crab_20240731_103634/240731_083724/0000/tree_39.root
root://cms-xrd-global.cern.ch//store/user/friti/training_ntuples_parTv1_2024Jul31/TTToSemiLeptonic_TuneCP5_13TeV-powheg-pythia8/crab_20240731_103634/240731_083724/0000/tree_3.root
root://cms-xrd-global.cern.ch//store/user/friti/training_ntuples_parTv1_2024Jul31/TTToSemiLeptonic_TuneCP5_13TeV-powheg-pythia8/crab_20240731_103634/240731_083724/0000/tree_40.root
root://cms-xrd-global.cern.ch//store/user/friti/training_ntuples_parTv1_2024Jul31/TTToSemiLeptonic_TuneCP5_13TeV-powheg-pythia8/crab_20240731_103634/240731_083724/0000/tree_41.root
root://cms-xrd-global.cern.ch//store/user/friti/training_ntuples_parTv1_2024Jul31/TTToSemiLeptonic_TuneCP5_13TeV-powheg-pythia8/crab_20240731_103634/240731_083724/0000/tree_42.root
root://cms-xrd-global.cern.ch//store/user/friti/training_ntuples_parTv1_2024Jul31/TTToSemiLeptonic_TuneCP5_13TeV-powheg-pythia8/crab_20240731_103634/240731_083724/0000/tree_43.root
root://cms-xrd-global.cern.ch//store/user/friti/training_ntuples_parTv1_2024Jul31/TTToSemiLeptonic_TuneCP5_13TeV-powheg-pythia8/crab_20240731_103634/240731_083724/0000/tree_44.root
root://cms-xrd-global.cern.ch//store/user/friti/training_ntuples_parTv1_2024Jul31/TTToSemiLeptonic_TuneCP5_13TeV-powheg-pythia8/crab_20240731_103634/240731_083724/0000/tree_45.root
root://cms-xrd-global.cern.ch//store/user/friti/training_ntuples_parTv1_2024Jul31/TTToSemiLeptonic_TuneCP5_13TeV-powheg-pythia8/crab_20240731_103634/240731_083724/0000/tree_46.root
root://cms-xrd-global.cern.ch//store/user/friti/training_ntuples_parTv1_2024Jul31/TTToSemiLeptonic_TuneCP5_13TeV-powheg-pythia8/crab_20240731_103634/240731_083724/0000/tree_47.root
root://cms-xrd-global.cern.ch//store/user/friti/training_ntuples_parTv1_2024Jul31/TTToSemiLeptonic_TuneCP5_13TeV-powheg-pythia8/crab_20240731_103634/240731_083724/0000/tree_48.root
root://cms-xrd-global.cern.ch//store/user/friti/training_ntuples_parTv1_2024Jul31/TTToSemiLeptonic_TuneCP5_13TeV-powheg-pythia8/crab_20240731_103634/240731_083724/0000/tree_49.root
root://cms-xrd-global.cern.ch//store/user/friti/training_ntuples_parTv1_2024Jul31/TTToSemiLeptonic_TuneCP5_13TeV-powheg-pythia8/crab_20240731_103634/240731_083724/0000/tree_4.root
root://cms-xrd-global.cern.ch//store/user/friti/training_ntuples_parTv1_2024Jul31/TTToSemiLeptonic_TuneCP5_13TeV-powheg-pythia8/crab_20240731_103634/240731_083724/0000/tree_50.root
root://cms-xrd-global.cern.ch//store/user/friti/training_ntuples_parTv1_2024Jul31/TTToSemiLeptonic_TuneCP5_13TeV-powheg-pythia8/crab_20240731_103634/240731_083724/0000/tree_51.root
root://cms-xrd-global.cern.ch//store/user/friti/training_ntuples_parTv1_2024Jul31/TTToSemiLeptonic_TuneCP5_13TeV-powheg-pythia8/crab_20240731_103634/240731_083724/0000/tree_52.root
root://cms-xrd-global.cern.ch//store/user/friti/training_ntuples_parTv1_2024Jul31/TTToSemiLeptonic_TuneCP5_13TeV-powheg-pythia8/crab_20240731_103634/240731_083724/0000/tree_53.root
root://cms-xrd-global.cern.ch//store/user/friti/training_ntuples_parTv1_2024Jul31/TTToSemiLeptonic_TuneCP5_13TeV-powheg-pythia8/crab_20240731_103634/240731_083724/0000/tree_54.root
root://cms-xrd-global.cern.ch//store/user/friti/training_ntuples_parTv1_2024Jul31/TTToSemiLeptonic_TuneCP5_13TeV-powheg-pythia8/crab_20240731_103634/240731_083724/0000/tree_55.root
root://cms-xrd-global.cern.ch//store/user/friti/training_ntuples_parTv1_2024Jul31/TTToSemiLeptonic_TuneCP5_13TeV-powheg-pythia8/crab_20240731_103634/240731_083724/0000/tree_56.root
root://cms-xrd-global.cern.ch//store/user/friti/training_ntuples_parTv1_2024Jul31/TTToSemiLeptonic_TuneCP5_13TeV-powheg-pythia8/crab_20240731_103634/240731_083724/0000/tree_58.root
root://cms-xrd-global.cern.ch//store/user/friti/training_ntuples_parTv1_2024Jul31/TTToSemiLeptonic_TuneCP5_13TeV-powheg-pythia8/crab_20240731_103634/240731_083724/0000/tree_59.root
root://cms-xrd-global.cern.ch//store/user/friti/training_ntuples_parTv1_2024Jul31/TTToSemiLeptonic_TuneCP5_13TeV-powheg-pythia8/crab_20240731_103634/240731_083724/0000/tree_5.root
root://cms-xrd-global.cern.ch//store/user/friti/training_ntuples_parTv1_2024Jul31/TTToSemiLeptonic_TuneCP5_13TeV-powheg-pythia8/crab_20240731_103634/240731_083724/0000/tree_60.root
root://cms-xrd-global.cern.ch//store/user/friti/training_ntuples_parTv1_2024Jul31/TTToSemiLeptonic_TuneCP5_13TeV-powheg-pythia8/crab_20240731_103634/240731_083724/0000/tree_61.root
root://cms-xrd-global.cern.ch//store/user/friti/training_ntuples_parTv1_2024Jul31/TTToSemiLeptonic_TuneCP5_13TeV-powheg-pythia8/crab_20240731_103634/240731_083724/0000/tree_62.root
root://cms-xrd-global.cern.ch//store/user/friti/training_ntuples_parTv1_2024Jul31/TTToSemiLeptonic_TuneCP5_13TeV-powheg-pythia8/crab_20240731_103634/240731_083724/0000/tree_63.root
root://cms-xrd-global.cern.ch//store/user/friti/training_ntuples_parTv1_2024Jul31/TTToSemiLeptonic_TuneCP5_13TeV-powheg-pythia8/crab_20240731_103634/240731_083724/0000/tree_64.root
root://cms-xrd-global.cern.ch//store/user/friti/training_ntuples_parTv1_2024Jul31/TTToSemiLeptonic_TuneCP5_13TeV-powheg-pythia8/crab_20240731_103634/240731_083724/0000/tree_65.root
root://cms-xrd-global.cern.ch//store/user/friti/training_ntuples_parTv1_2024Jul31/TTToSemiLeptonic_TuneCP5_13TeV-powheg-pythia8/crab_20240731_103634/240731_083724/0000/tree_66.root
root://cms-xrd-global.cern.ch//store/user/friti/training_ntuples_parTv1_2024Jul31/TTToSemiLeptonic_TuneCP5_13TeV-powheg-pythia8/crab_20240731_103634/240731_083724/0000/tree_67.root
root://cms-xrd-global.cern.ch//store/user/friti/training_ntuples_parTv1_2024Jul31/TTToSemiLeptonic_TuneCP5_13TeV-powheg-pythia8/crab_20240731_103634/240731_083724/0000/tree_68.root
root://cms-xrd-global.cern.ch//store/user/friti/training_ntuples_parTv1_2024Jul31/TTToSemiLeptonic_TuneCP5_13TeV-powheg-pythia8/crab_20240731_103634/240731_083724/0000/tree_69.root
root://cms-xrd-global.cern.ch//store/user/friti/training_ntuples_parTv1_2024Jul31/TTToSemiLeptonic_TuneCP5_13TeV-powheg-pythia8/crab_20240731_103634/240731_083724/0000/tree_6.root
root://cms-xrd-global.cern.ch//store/user/friti/training_ntuples_parTv1_2024Jul31/TTToSemiLeptonic_TuneCP5_13TeV-powheg-pythia8/crab_20240731_103634/240731_083724/0000/tree_70.root
root://cms-xrd-global.cern.ch//store/user/friti/training_ntuples_parTv1_2024Jul31/TTToSemiLeptonic_TuneCP5_13TeV-powheg-pythia8/crab_20240731_103634/240731_083724/0000/tree_71.root
root://cms-xrd-global.cern.ch//store/user/friti/training_ntuples_parTv1_2024Jul31/TTToSemiLeptonic_TuneCP5_13TeV-powheg-pythia8/crab_20240731_103634/240731_083724/0000/tree_72.root
root://cms-xrd-global.cern.ch//store/user/friti/training_ntuples_parTv1_2024Jul31/TTToSemiLeptonic_TuneCP5_13TeV-powheg-pythia8/crab_20240731_103634/240731_083724/0000/tree_73.root
root://cms-xrd-global.cern.ch//store/user/friti/training_ntuples_parTv1_2024Jul31/TTToSemiLeptonic_TuneCP5_13TeV-powheg-pythia8/crab_20240731_103634/240731_083724/0000/tree_74.root
root://cms-xrd-global.cern.ch//store/user/friti/training_ntuples_parTv1_2024Jul31/TTToSemiLeptonic_TuneCP5_13TeV-powheg-pythia8/crab_20240731_103634/240731_083724/0000/tree_75.root
root://cms-xrd-global.cern.ch//store/user/friti/training_ntuples_parTv1_2024Jul31/TTToSemiLeptonic_TuneCP5_13TeV-powheg-pythia8/crab_20240731_103634/240731_083724/0000/tree_76.root
root://cms-xrd-global.cern.ch//store/user/friti/training_ntuples_parTv1_2024Jul31/TTToSemiLeptonic_TuneCP5_13TeV-powheg-pythia8/crab_20240731_103634/240731_083724/0000/tree_77.root
root://cms-xrd-global.cern.ch//store/user/friti/training_ntuples_parTv1_2024Jul31/TTToSemiLeptonic_TuneCP5_13TeV-powheg-pythia8/crab_20240731_103634/240731_083724/0000/tree_78.root
root://cms-xrd-global.cern.ch//store/user/friti/training_ntuples_parTv1_2024Jul31/TTToSemiLeptonic_TuneCP5_13TeV-powheg-pythia8/crab_20240731_103634/240731_083724/0000/tree_79.root
root://cms-xrd-global.cern.ch//store/user/friti/training_ntuples_parTv1_2024Jul31/TTToSemiLeptonic_TuneCP5_13TeV-powheg-pythia8/crab_20240731_103634/240731_083724/0000/tree_7.root
root://cms-xrd-global.cern.ch//store/user/friti/training_ntuples_parTv1_2024Jul31/TTToSemiLeptonic_TuneCP5_13TeV-powheg-pythia8/crab_20240731_103634/240731_083724/0000/tree_80.root
root://cms-xrd-global.cern.ch//store/user/friti/training_ntuples_parTv1_2024Jul31/TTToSemiLeptonic_TuneCP5_13TeV-powheg-pythia8/crab_20240731_103634/240731_083724/0000/tree_81.root
root://cms-xrd-global.cern.ch//store/user/friti/training_ntuples_parTv1_2024Jul31/TTToSemiLeptonic_TuneCP5_13TeV-powheg-pythia8/crab_20240731_103634/240731_083724/0000/tree_82.root
root://cms-xrd-global.cern.ch//store/user/friti/training_ntuples_parTv1_2024Jul31/TTToSemiLeptonic_TuneCP5_13TeV-powheg-pythia8/crab_20240731_103634/240731_083724/0000/tree_83.root
root://cms-xrd-global.cern.ch//store/user/friti/training_ntuples_parTv1_2024Jul31/TTToSemiLeptonic_TuneCP5_13TeV-powheg-pythia8/crab_20240731_103634/240731_083724/0000/tree_84.root
root://cms-xrd-global.cern.ch//store/user/friti/training_ntuples_parTv1_2024Jul31/TTToSemiLeptonic_TuneCP5_13TeV-powheg-pythia8/crab_20240731_103634/240731_083724/0000/tree_85.root
root://cms-xrd-global.cern.ch//store/user/friti/training_ntuples_parTv1_2024Jul31/TTToSemiLeptonic_TuneCP5_13TeV-powheg-pythia8/crab_20240731_103634/240731_083724/0000/tree_86.root
root://cms-xrd-global.cern.ch//store/user/friti/training_ntuples_parTv1_2024Jul31/TTToSemiLeptonic_TuneCP5_13TeV-powheg-pythia8/crab_20240731_103634/240731_083724/0000/tree_87.root
root://cms-xrd-global.cern.ch//store/user/friti/training_ntuples_parTv1_2024Jul31/TTToSemiLeptonic_TuneCP5_13TeV-powheg-pythia8/crab_20240731_103634/240731_083724/0000/tree_88.root
root://cms-xrd-global.cern.ch//store/user/friti/training_ntuples_parTv1_2024Jul31/TTToSemiLeptonic_TuneCP5_13TeV-powheg-pythia8/crab_20240731_103634/240731_083724/0000/tree_89.root
root://cms-xrd-global.cern.ch//store/user/friti/training_ntuples_parTv1_2024Jul31/TTToSemiLeptonic_TuneCP5_13TeV-powheg-pythia8/crab_20240731_103634/240731_083724/0000/tree_8.root
root://cms-xrd-global.cern.ch//store/user/friti/training_ntuples_parTv1_2024Jul31/TTToSemiLeptonic_TuneCP5_13TeV-powheg-pythia8/crab_20240731_103634/240731_083724/0000/tree_90.root
root://cms-xrd-global.cern.ch//store/user/friti/training_ntuples_parTv1_2024Jul31/TTToSemiLeptonic_TuneCP5_13TeV-powheg-pythia8/crab_20240731_103634/240731_083724/0000/tree_91.root
root://cms-xrd-global.cern.ch//store/user/friti/training_ntuples_parTv1_2024Jul31/TTToSemiLeptonic_TuneCP5_13TeV-powheg-pythia8/crab_20240731_103634/240731_083724/0000/tree_92.root
root://cms-xrd-global.cern.ch//store/user/friti/training_ntuples_parTv1_2024Jul31/TTToSemiLeptonic_TuneCP5_13TeV-powheg-pythia8/crab_20240731_103634/240731_083724/0000/tree_93.root
root://cms-xrd-global.cern.ch//store/user/friti/training_ntuples_parTv1_2024Jul31/TTToSemiLeptonic_TuneCP5_13TeV-powheg-pythia8/crab_20240731_103634/240731_083724/0000/tree_94.root
root://cms-xrd-global.cern.ch//store/user/friti/training_ntuples_parTv1_2024Jul31/TTToSemiLeptonic_TuneCP5_13TeV-powheg-pythia8/crab_20240731_103634/240731_083724/0000/tree_95.root
root://cms-xrd-global.cern.ch//store/user/friti/training_ntuples_parTv1_2024Jul31/TTToSemiLeptonic_TuneCP5_13TeV-powheg-pythia8/crab_20240731_103634/240731_083724/0000/tree_96.root
root://cms-xrd-global.cern.ch//store/user/friti/training_ntuples_parTv1_2024Jul31/TTToSemiLeptonic_TuneCP5_13TeV-powheg-pythia8/crab_20240731_103634/240731_083724/0000/tree_97.root
root://cms-xrd-global.cern.ch//store/user/friti/training_ntuples_parTv1_2024Jul31/TTToSemiLeptonic_TuneCP5_13TeV-powheg-pythia8/crab_20240731_103634/240731_083724/0000/tree_98.root
root://cms-xrd-global.cern.ch//store/user/friti/training_ntuples_parTv1_2024Jul31/TTToSemiLeptonic_TuneCP5_13TeV-powheg-pythia8/crab_20240731_103634/240731_083724/0000/tree_99.root
root://cms-xrd-global.cern.ch//store/user/friti/training_ntuples_parTv1_2024Jul31/TTToSemiLeptonic_TuneCP5_13TeV-powheg-pythia8/crab_20240731_103634/240731_083724/0000/tree_9.root
