[{"runnumber":362437,"lumisections":[[1,11],[73,92]]},
{"runnumber":362439,"lumisections":[[8,34],[249,1595]]},
{"runnumber":362616,"lumisections":[[1,351]]},
{"runnumber":362617,"lumisections":[[1,244]]},
{"runnumber":362618,"lumisections":[[1,274]]},
{"runnumber":362720,"lumisections":[[52,949]]}]