[
{"runnumber": 362616, "start_time": "2022-11-24T08:45:47Z", "end_time": "2022-11-24T11:04:40Z", "lumisection": 74, "pileup": 58.792213, "events_l1a": 2249188, "rate": 1887.225526819765, "events": 43992, "prescale": 51},
{"runnumber": 362616, "start_time": "2022-11-24T08:45:47Z", "end_time": "2022-11-24T11:04:40Z", "lumisection": 75, "pileup": 58.760099, "events_l1a": 2242658, "rate": 1877.1441938773517, "events": 43757, "prescale": 51},
{"runnumber": 362616, "start_time": "2022-11-24T08:45:47Z", "end_time": "2022-11-24T11:04:40Z", "lumisection": 76, "pileup": 58.73869, "events_l1a": 2242126, "rate": 1877.7447839249849, "events": 43771, "prescale": 51},
{"runnumber": 362616, "start_time": "2022-11-24T08:45:47Z", "end_time": "2022-11-24T11:04:40Z", "lumisection": 77, "pileup": 58.713906, "events_l1a": 2228122, "rate": 1857.1531251489916, "events": 43291, "prescale": 51},
{"runnumber": 362616, "start_time": "2022-11-24T08:45:47Z", "end_time": "2022-11-24T11:04:40Z", "lumisection": 78, "pileup": 58.690961, "events_l1a": 2253674, "rate": 1887.3113253979984, "events": 43994, "prescale": 51},
{"runnumber": 362616, "start_time": "2022-11-24T08:45:47Z", "end_time": "2022-11-24T11:04:40Z", "lumisection": 79, "pileup": 58.647967, "events_l1a": 2125302, "rate": 1780.663692654001, "events": 41508, "prescale": 51},
{"runnumber": 362616, "start_time": "2022-11-24T08:45:47Z", "end_time": "2022-11-24T11:04:40Z", "lumisection": 80, "pileup": 58.622448, "events_l1a": 2124996, "rate": 1775.344180803536, "events": 41384, "prescale": 51},
{"runnumber": 362616, "start_time": "2022-11-24T08:45:47Z", "end_time": "2022-11-24T11:04:40Z", "lumisection": 81, "pileup": 58.518521, "events_l1a": 2142025, "rate": 1794.820458062496, "events": 41838, "prescale": 51},
{"runnumber": 362616, "start_time": "2022-11-24T08:45:47Z", "end_time": "2022-11-24T11:04:40Z", "lumisection": 82, "pileup": 58.607405, "events_l1a": 2208448, "rate": 1845.184223485446, "events": 43012, "prescale": 51},
{"runnumber": 362616, "start_time": "2022-11-24T08:45:47Z", "end_time": "2022-11-24T11:04:40Z", "lumisection": 83, "pileup": 58.650076, "events_l1a": 2167952, "rate": 1815.1976203929062, "events": 42313, "prescale": 51},
{"runnumber": 362616, "start_time": "2022-11-24T08:45:47Z", "end_time": "2022-11-24T11:04:40Z", "lumisection": 84, "pileup": 58.54535, "events_l1a": 2176538, "rate": 1820.4742329542544, "events": 42436, "prescale": 51},
{"runnumber": 362616, "start_time": "2022-11-24T08:45:47Z", "end_time": "2022-11-24T11:04:40Z", "lumisection": 85, "pileup": 58.558264, "events_l1a": 2208398, "rate": 1844.7552305942795, "events": 43002, "prescale": 51},
{"runnumber": 362616, "start_time": "2022-11-24T08:45:47Z", "end_time": "2022-11-24T11:04:40Z", "lumisection": 86, "pileup": 58.496072, "events_l1a": 2226168, "rate": 1865.0894936355726, "events": 43476, "prescale": 51},
{"runnumber": 362616, "start_time": "2022-11-24T08:45:47Z", "end_time": "2022-11-24T11:04:40Z", "lumisection": 87, "pileup": 58.476242, "events_l1a": 2234504, "rate": 1872.1249770507034, "events": 43640, "prescale": 51},
{"runnumber": 362616, "start_time": "2022-11-24T08:45:47Z", "end_time": "2022-11-24T11:04:40Z", "lumisection": 88, "pileup": 58.442377, "events_l1a": 2230760, "rate": 1862.4297377103403, "events": 43414, "prescale": 51},
{"runnumber": 362616, "start_time": "2022-11-24T08:45:47Z", "end_time": "2022-11-24T11:04:40Z", "lumisection": 89, "pileup": 58.424815, "events_l1a": 2243216, "rate": 1872.5110706527535, "events": 43649, "prescale": 51},
{"runnumber": 362616, "start_time": "2022-11-24T08:45:47Z", "end_time": "2022-11-24T11:04:40Z", "lumisection": 90, "pileup": 58.421969, "events_l1a": 2240730, "rate": 1881.7773171019503, "events": 43865, "prescale": 51},
{"runnumber": 362616, "start_time": "2022-11-24T08:45:47Z", "end_time": "2022-11-24T11:04:40Z", "lumisection": 91, "pileup": 58.378188, "events_l1a": 2243762, "rate": 1872.7684663874534, "events": 43655, "prescale": 51},
{"runnumber": 362616, "start_time": "2022-11-24T08:45:47Z", "end_time": "2022-11-24T11:04:40Z", "lumisection": 92, "pileup": 58.35497, "events_l1a": 2204315, "rate": 1847.500785097745, "events": 43066, "prescale": 51},
{"runnumber": 362616, "start_time": "2022-11-24T08:45:47Z", "end_time": "2022-11-24T11:04:40Z", "lumisection": 93, "pileup": 58.307187, "events_l1a": 2232353, "rate": 1863.2019249144398, "events": 43432, "prescale": 51},
{"runnumber": 362616, "start_time": "2022-11-24T08:45:47Z", "end_time": "2022-11-24T11:04:40Z", "lumisection": 94, "pileup": 58.625894, "events_l1a": 2247436, "rate": 1876.2004095167854, "events": 43735, "prescale": 51},
{"runnumber": 362616, "start_time": "2022-11-24T08:45:47Z", "end_time": "2022-11-24T11:04:40Z", "lumisection": 95, "pileup": 60.785841, "events_l1a": 2313815, "rate": 1942.5227104911298, "events": 45281, "prescale": 51},
{"runnumber": 362616, "start_time": "2022-11-24T08:45:47Z", "end_time": "2022-11-24T11:04:40Z", "lumisection": 96, "pileup": 61.028711, "events_l1a": 2333244, "rate": 1962.1276856174402, "events": 45738, "prescale": 51},
{"runnumber": 362616, "start_time": "2022-11-24T08:45:47Z", "end_time": "2022-11-24T11:04:40Z", "lumisection": 97, "pileup": 60.954801, "events_l1a": 2333239, "rate": 1943.4664948516959, "events": 45303, "prescale": 52},
{"runnumber": 362616, "start_time": "2022-11-24T08:45:47Z", "end_time": "2022-11-24T11:04:40Z", "lumisection": 98, "pileup": 60.94533, "events_l1a": 2330175, "rate": 1953.9768206852757, "events": 45548, "prescale": 51},
{"runnumber": 362616, "start_time": "2022-11-24T08:45:47Z", "end_time": "2022-11-24T11:04:40Z", "lumisection": 99, "pileup": 60.893601, "events_l1a": 2330908, "rate": 1952.9043384573592, "events": 45523, "prescale": 51},
{"runnumber": 362616, "start_time": "2022-11-24T08:45:47Z", "end_time": "2022-11-24T11:04:40Z", "lumisection": 100, "pileup": 60.860618, "events_l1a": 2318260, "rate": 1941.8792211543798, "events": 45266, "prescale": 51},
{"runnumber": 362616, "start_time": "2022-11-24T08:45:47Z", "end_time": "2022-11-24T11:04:40Z", "lumisection": 101, "pileup": 60.833692, "events_l1a": 2317024, "rate": 1939.133666650914, "events": 45202, "prescale": 51},
{"runnumber": 362616, "start_time": "2022-11-24T08:45:47Z", "end_time": "2022-11-24T11:04:40Z", "lumisection": 102, "pileup": 60.802137, "events_l1a": 2327183, "rate": 1944.9679699707785, "events": 45338, "prescale": 51},
{"runnumber": 362616, "start_time": "2022-11-24T08:45:47Z", "end_time": "2022-11-24T11:04:40Z", "lumisection": 103, "pileup": 60.768482, "events_l1a": 2332111, "rate": 1957.3658645254911, "events": 45627, "prescale": 51},
{"runnumber": 362616, "start_time": "2022-11-24T08:45:47Z", "end_time": "2022-11-24T11:04:40Z", "lumisection": 104, "pileup": 60.73033, "events_l1a": 2315164, "rate": 1936.7313064603818, "events": 45146, "prescale": 51},
{"runnumber": 362616, "start_time": "2022-11-24T08:45:47Z", "end_time": "2022-11-24T11:04:40Z", "lumisection": 105, "pileup": 60.720312, "events_l1a": 2330757, "rate": 1955.6927922499417, "events": 45588, "prescale": 51},
{"runnumber": 362616, "start_time": "2022-11-24T08:45:47Z", "end_time": "2022-11-24T11:04:40Z", "lumisection": 106, "pileup": 60.700427, "events_l1a": 2331104, "rate": 1955.0064036240756, "events": 45572, "prescale": 51},
{"runnumber": 362616, "start_time": "2022-11-24T08:45:47Z", "end_time": "2022-11-24T11:04:40Z", "lumisection": 107, "pileup": 60.685959, "events_l1a": 2331440, "rate": 1948.786006702161, "events": 45427, "prescale": 51},
{"runnumber": 362616, "start_time": "2022-11-24T08:45:47Z", "end_time": "2022-11-24T11:04:40Z", "lumisection": 108, "pileup": 60.673181, "events_l1a": 2329164, "rate": 1952.5182448553096, "events": 45514, "prescale": 51},
{"runnumber": 362616, "start_time": "2022-11-24T08:45:47Z", "end_time": "2022-11-24T11:04:40Z", "lumisection": 109, "pileup": 60.613966, "events_l1a": 2316529, "rate": 1940.2061488788304, "events": 45227, "prescale": 51},
{"runnumber": 362616, "start_time": "2022-11-24T08:45:47Z", "end_time": "2022-11-24T11:04:40Z", "lumisection": 110, "pileup": 60.54522, "events_l1a": 2318469, "rate": 1939.2194652291475, "events": 45204, "prescale": 51},
{"runnumber": 362616, "start_time": "2022-11-24T08:45:47Z", "end_time": "2022-11-24T11:04:40Z", "lumisection": 111, "pileup": 60.517934, "events_l1a": 2304315, "rate": 1935.4014284977657, "events": 45115, "prescale": 51},
{"runnumber": 362616, "start_time": "2022-11-24T08:45:47Z", "end_time": "2022-11-24T11:04:40Z", "lumisection": 112, "pileup": 60.521375, "events_l1a": 2294906, "rate": 1917.8556192490546, "events": 44706, "prescale": 51},
{"runnumber": 362616, "start_time": "2022-11-24T08:45:47Z", "end_time": "2022-11-24T11:04:40Z", "lumisection": 113, "pileup": 60.540454, "events_l1a": 2308214, "rate": 1931.3688953208002, "events": 45021, "prescale": 51},
{"runnumber": 362616, "start_time": "2022-11-24T08:45:47Z", "end_time": "2022-11-24T11:04:40Z", "lumisection": 114, "pileup": 60.497997, "events_l1a": 2308624, "rate": 1933.1277661745826, "events": 45062, "prescale": 51},
{"runnumber": 362616, "start_time": "2022-11-24T08:45:47Z", "end_time": "2022-11-24T11:04:40Z", "lumisection": 115, "pileup": 60.446956, "events_l1a": 2274464, "rate": 1906.6589047896084, "events": 44445, "prescale": 51},
{"runnumber": 362616, "start_time": "2022-11-24T08:45:47Z", "end_time": "2022-11-24T11:04:40Z", "lumisection": 116, "pileup": 60.419744, "events_l1a": 1528655, "rate": 1276.7257434006872, "events": 29761, "prescale": 51},
{"runnumber": 362616, "start_time": "2022-11-24T08:45:47Z", "end_time": "2022-11-24T11:04:40Z", "lumisection": 117, "pileup": 60.401627, "events_l1a": 1490316, "rate": 1252.7021414953617, "events": 29201, "prescale": 51},
{"runnumber": 362616, "start_time": "2022-11-24T08:45:47Z", "end_time": "2022-11-24T11:04:40Z", "lumisection": 118, "pileup": 60.33221, "events_l1a": 2314516, "rate": 1933.0419675963494, "events": 45060, "prescale": 51},
{"runnumber": 362616, "start_time": "2022-11-24T08:45:47Z", "end_time": "2022-11-24T11:04:40Z", "lumisection": 119, "pileup": 60.298601, "events_l1a": 2315767, "rate": 1937.675090820948, "events": 45168, "prescale": 51},
{"runnumber": 362616, "start_time": "2022-11-24T08:45:47Z", "end_time": "2022-11-24T11:04:40Z", "lumisection": 120, "pileup": 60.275665, "events_l1a": 2292966, "rate": 1924.848203375069, "events": 44869, "prescale": 51},
{"runnumber": 362616, "start_time": "2022-11-24T08:45:47Z", "end_time": "2022-11-24T11:04:40Z", "lumisection": 121, "pileup": 60.237759, "events_l1a": 2211494, "rate": 1849.2167566624112, "events": 43106, "prescale": 51},
{"runnumber": 362616, "start_time": "2022-11-24T08:45:47Z", "end_time": "2022-11-24T11:04:40Z", "lumisection": 122, "pileup": 60.202416, "events_l1a": 2307300, "rate": 1928.3659450826347, "events": 44951, "prescale": 51},
{"runnumber": 362616, "start_time": "2022-11-24T08:45:47Z", "end_time": "2022-11-24T11:04:40Z", "lumisection": 123, "pileup": 60.149833, "events_l1a": 2301257, "rate": 1928.9665351302674, "events": 44965, "prescale": 51},
{"runnumber": 362616, "start_time": "2022-11-24T08:45:47Z", "end_time": "2022-11-24T11:04:40Z", "lumisection": 124, "pileup": 60.109992, "events_l1a": 2304121, "rate": 1929.2239308649673, "events": 44971, "prescale": 51},
{"runnumber": 362616, "start_time": "2022-11-24T08:45:47Z", "end_time": "2022-11-24T11:04:40Z", "lumisection": 125, "pileup": 60.069016, "events_l1a": 2296061, "rate": 1923.990217592736, "events": 44849, "prescale": 51},
{"runnumber": 362616, "start_time": "2022-11-24T08:45:47Z", "end_time": "2022-11-24T11:04:40Z", "lumisection": 126, "pileup": 60.063155, "events_l1a": 2282592, "rate": 1907.7313870175246, "events": 44470, "prescale": 51},
{"runnumber": 362616, "start_time": "2022-11-24T08:45:47Z", "end_time": "2022-11-24T11:04:40Z", "lumisection": 127, "pileup": 60.068913, "events_l1a": 2291637, "rate": 1924.1618147492024, "events": 44853, "prescale": 51},
{"runnumber": 362616, "start_time": "2022-11-24T08:45:47Z", "end_time": "2022-11-24T11:04:40Z", "lumisection": 128, "pileup": 60.03997, "events_l1a": 2285347, "rate": 1904.2136453099595, "events": 44388, "prescale": 51},
{"runnumber": 362616, "start_time": "2022-11-24T08:45:47Z", "end_time": "2022-11-24T11:04:40Z", "lumisection": 129, "pileup": 59.991974, "events_l1a": 2279848, "rate": 1911.89261806184, "events": 44567, "prescale": 51},
{"runnumber": 362616, "start_time": "2022-11-24T08:45:47Z", "end_time": "2022-11-24T11:04:40Z", "lumisection": 130, "pileup": 59.94312, "events_l1a": 2289291, "rate": 1916.3541441299717, "events": 44671, "prescale": 51},
{"runnumber": 362616, "start_time": "2022-11-24T08:45:47Z", "end_time": "2022-11-24T11:04:40Z", "lumisection": 131, "pileup": 59.914904, "events_l1a": 2286361, "rate": 1910.8630351230404, "events": 44543, "prescale": 51},
{"runnumber": 362616, "start_time": "2022-11-24T08:45:47Z", "end_time": "2022-11-24T11:04:40Z", "lumisection": 132, "pileup": 59.880207, "events_l1a": 2272044, "rate": 1908.7180706672077, "events": 44493, "prescale": 51},
{"runnumber": 362616, "start_time": "2022-11-24T08:45:47Z", "end_time": "2022-11-24T11:04:40Z", "lumisection": 133, "pileup": 59.867254, "events_l1a": 2288272, "rate": 1915.5819569258722, "events": 44653, "prescale": 51},
{"runnumber": 362616, "start_time": "2022-11-24T08:45:47Z", "end_time": "2022-11-24T11:04:40Z", "lumisection": 134, "pileup": 59.823539, "events_l1a": 2281992, "rate": 1910.6914379665736, "events": 44539, "prescale": 51},
{"runnumber": 362616, "start_time": "2022-11-24T08:45:47Z", "end_time": "2022-11-24T11:04:40Z", "lumisection": 135, "pileup": 59.814624, "events_l1a": 2249740, "rate": 1883.021396486333, "events": 43894, "prescale": 51},
{"runnumber": 362616, "start_time": "2022-11-24T08:45:47Z", "end_time": "2022-11-24T11:04:40Z", "lumisection": 136, "pileup": 59.799792, "events_l1a": 2282381, "rate": 1911.0775315686235, "events": 44548, "prescale": 51},
{"runnumber": 362616, "start_time": "2022-11-24T08:45:47Z", "end_time": "2022-11-24T11:04:40Z", "lumisection": 137, "pileup": 59.744573, "events_l1a": 2266567, "rate": 1890.1855777688138, "events": 44061, "prescale": 51},
{"runnumber": 362616, "start_time": "2022-11-24T08:45:47Z", "end_time": "2022-11-24T11:04:40Z", "lumisection": 138, "pileup": 59.70343, "events_l1a": 2267472, "rate": 1901.8112851194267, "events": 44332, "prescale": 51},
{"runnumber": 362616, "start_time": "2022-11-24T08:45:47Z", "end_time": "2022-11-24T11:04:40Z", "lumisection": 139, "pileup": 59.688412, "events_l1a": 2274912, "rate": 1903.9133502861425, "events": 44381, "prescale": 51},
{"runnumber": 362616, "start_time": "2022-11-24T08:45:47Z", "end_time": "2022-11-24T11:04:40Z", "lumisection": 140, "pileup": 59.687869, "events_l1a": 2275336, "rate": 1907.0020991025417, "events": 44453, "prescale": 51},
{"runnumber": 362616, "start_time": "2022-11-24T08:45:47Z", "end_time": "2022-11-24T11:04:40Z", "lumisection": 141, "pileup": 59.678088, "events_l1a": 2280651, "rate": 1904.5568396228925, "events": 44396, "prescale": 51},
{"runnumber": 362616, "start_time": "2022-11-24T08:45:47Z", "end_time": "2022-11-24T11:04:40Z", "lumisection": 142, "pileup": 59.612834, "events_l1a": 2276917, "rate": 1909.9621500515905, "events": 44522, "prescale": 51},
{"runnumber": 362616, "start_time": "2022-11-24T08:45:47Z", "end_time": "2022-11-24T11:04:40Z", "lumisection": 143, "pileup": 59.58019, "events_l1a": 2262405, "rate": 1892.8882329831633, "events": 44124, "prescale": 51},
{"runnumber": 362616, "start_time": "2022-11-24T08:45:47Z", "end_time": "2022-11-24T11:04:40Z", "lumisection": 144, "pileup": 59.563402, "events_l1a": 2272719, "rate": 1897.692953364228, "events": 44236, "prescale": 51},
{"runnumber": 362616, "start_time": "2022-11-24T08:45:47Z", "end_time": "2022-11-24T11:04:40Z", "lumisection": 145, "pileup": 59.515599, "events_l1a": 2254518, "rate": 1887.6545197109317, "events": 44002, "prescale": 51},
{"runnumber": 362616, "start_time": "2022-11-24T08:45:47Z", "end_time": "2022-11-24T11:04:40Z", "lumisection": 146, "pileup": 59.487331, "events_l1a": 2257988, "rate": 1895.5908881975122, "events": 44187, "prescale": 51},
{"runnumber": 362616, "start_time": "2022-11-24T08:45:47Z", "end_time": "2022-11-24T11:04:40Z", "lumisection": 147, "pileup": 59.340222, "events_l1a": 2256219, "rate": 1883.8364829795496, "events": 43913, "prescale": 51},
{"runnumber": 362616, "start_time": "2022-11-24T08:45:47Z", "end_time": "2022-11-24T11:04:40Z", "lumisection": 148, "pileup": 59.376274, "events_l1a": 2258129, "rate": 1885.252159520399, "events": 43946, "prescale": 51},
{"runnumber": 362616, "start_time": "2022-11-24T08:45:47Z", "end_time": "2022-11-24T11:04:40Z", "lumisection": 149, "pileup": 59.420968, "events_l1a": 2230503, "rate": 1867.8779474281548, "events": 43541, "prescale": 51},
{"runnumber": 362616, "start_time": "2022-11-24T08:45:47Z", "end_time": "2022-11-24T11:04:40Z", "lumisection": 150, "pileup": 59.403925, "events_l1a": 2235266, "rate": 1872.03917847247, "events": 43638, "prescale": 51},
{"runnumber": 362616, "start_time": "2022-11-24T08:45:47Z", "end_time": "2022-11-24T11:04:40Z", "lumisection": 151, "pileup": 59.362072, "events_l1a": 2239863, "rate": 1873.2832578568527, "events": 43667, "prescale": 51},
{"runnumber": 362616, "start_time": "2022-11-24T08:45:47Z", "end_time": "2022-11-24T11:04:40Z", "lumisection": 152, "pileup": 59.344467, "events_l1a": 2249765, "rate": 1885.5524545442158, "events": 43953, "prescale": 51},
{"runnumber": 362616, "start_time": "2022-11-24T08:45:47Z", "end_time": "2022-11-24T11:04:40Z", "lumisection": 153, "pileup": 59.319525, "events_l1a": 2251337, "rate": 1883.7935836904328, "events": 43912, "prescale": 51},
{"runnumber": 362616, "start_time": "2022-11-24T08:45:47Z", "end_time": "2022-11-24T11:04:40Z", "lumisection": 154, "pileup": 59.309768, "events_l1a": 2263317, "rate": 1893.6175208981463, "events": 44141, "prescale": 51},
{"runnumber": 362616, "start_time": "2022-11-24T08:45:47Z", "end_time": "2022-11-24T11:04:40Z", "lumisection": 155, "pileup": 59.312429, "events_l1a": 2244627, "rate": 1878.9888633093678, "events": 43800, "prescale": 51},
{"runnumber": 362616, "start_time": "2022-11-24T08:45:47Z", "end_time": "2022-11-24T11:04:40Z", "lumisection": 156, "pileup": 59.290296, "events_l1a": 2253794, "rate": 1882.9355979080997, "events": 43892, "prescale": 51},
{"runnumber": 362616, "start_time": "2022-11-24T08:45:47Z", "end_time": "2022-11-24T11:04:40Z", "lumisection": 157, "pileup": 59.276431, "events_l1a": 2263534, "rate": 1897.1781618948282, "events": 44224, "prescale": 51},
{"runnumber": 362616, "start_time": "2022-11-24T08:45:47Z", "end_time": "2022-11-24T11:04:40Z", "lumisection": 158, "pileup": 59.252063, "events_l1a": 2257232, "rate": 1882.2063099931167, "events": 43875, "prescale": 51},
{"runnumber": 362616, "start_time": "2022-11-24T08:45:47Z", "end_time": "2022-11-24T11:04:40Z", "lumisection": 159, "pileup": 59.251185, "events_l1a": 2248178, "rate": 1889.2846926973643, "events": 44040, "prescale": 51},
{"runnumber": 362616, "start_time": "2022-11-24T08:45:47Z", "end_time": "2022-11-24T11:04:40Z", "lumisection": 160, "pileup": 59.224562, "events_l1a": 2174703, "rate": 1818.3721677875383, "events": 42387, "prescale": 51},
{"runnumber": 362616, "start_time": "2022-11-24T08:45:47Z", "end_time": "2022-11-24T11:04:40Z", "lumisection": 161, "pileup": 59.201283, "events_l1a": 2118695, "rate": 1771.6119426503874, "events": 41297, "prescale": 51},
{"runnumber": 362616, "start_time": "2022-11-24T08:45:47Z", "end_time": "2022-11-24T11:04:40Z", "lumisection": 162, "pileup": 59.184132, "events_l1a": 2153692, "rate": 1796.8796239400951, "events": 41886, "prescale": 51},
{"runnumber": 362616, "start_time": "2022-11-24T08:45:47Z", "end_time": "2022-11-24T11:04:40Z", "lumisection": 163, "pileup": 59.151484, "events_l1a": 2188226, "rate": 1829.0111914884678, "events": 42635, "prescale": 51},
{"runnumber": 362616, "start_time": "2022-11-24T08:45:47Z", "end_time": "2022-11-24T11:04:40Z", "lumisection": 164, "pileup": 59.149424, "events_l1a": 2210349, "rate": 1854.0643763325927, "events": 43219, "prescale": 51},
{"runnumber": 362616, "start_time": "2022-11-24T08:45:47Z", "end_time": "2022-11-24T11:04:40Z", "lumisection": 165, "pileup": 59.125281, "events_l1a": 2216661, "rate": 1858.6974995571913, "events": 43327, "prescale": 51},
{"runnumber": 362616, "start_time": "2022-11-24T08:45:47Z", "end_time": "2022-11-24T11:04:40Z", "lumisection": 166, "pileup": 59.071682, "events_l1a": 2259960, "rate": 1888.855699806198, "events": 44030, "prescale": 51},
{"runnumber": 362616, "start_time": "2022-11-24T08:45:47Z", "end_time": "2022-11-24T11:04:40Z", "lumisection": 167, "pileup": 59.060847, "events_l1a": 1510785, "rate": 1263.5985609309914, "events": 29455, "prescale": 51},
{"runnumber": 362616, "start_time": "2022-11-24T08:45:47Z", "end_time": "2022-11-24T11:04:40Z", "lumisection": 168, "pileup": 59.028992, "events_l1a": 2253294, "rate": 1882.892698618983, "events": 43891, "prescale": 51},
{"runnumber": 362616, "start_time": "2022-11-24T08:45:47Z", "end_time": "2022-11-24T11:04:40Z", "lumisection": 169, "pileup": 58.97863, "events_l1a": 1925908, "rate": 1614.7721416399067, "events": 37641, "prescale": 51},
{"runnumber": 362616, "start_time": "2022-11-24T08:45:47Z", "end_time": "2022-11-24T11:04:40Z", "lumisection": 170, "pileup": 58.961634, "events_l1a": 1443328, "rate": 1200.9655988206791, "events": 27995, "prescale": 52},
{"runnumber": 362616, "start_time": "2022-11-24T08:45:47Z", "end_time": "2022-11-24T11:04:40Z", "lumisection": 171, "pileup": 58.947005, "events_l1a": 2233683, "rate": 1875.8143159147355, "events": 43726, "prescale": 51},
{"runnumber": 362616, "start_time": "2022-11-24T08:45:47Z", "end_time": "2022-11-24T11:04:40Z", "lumisection": 172, "pileup": 58.913761, "events_l1a": 2242920, "rate": 1874.8276322650524, "events": 43703, "prescale": 51},
{"runnumber": 362616, "start_time": "2022-11-24T08:45:47Z", "end_time": "2022-11-24T11:04:40Z", "lumisection": 173, "pileup": 58.903727, "events_l1a": 2247544, "rate": 1877.573186768518, "events": 43767, "prescale": 51},
{"runnumber": 362616, "start_time": "2022-11-24T08:45:47Z", "end_time": "2022-11-24T11:04:40Z", "lumisection": 174, "pileup": 58.89317, "events_l1a": 2224662, "rate": 1863.5880185164897, "events": 43441, "prescale": 51},
{"runnumber": 362616, "start_time": "2022-11-24T08:45:47Z", "end_time": "2022-11-24T11:04:40Z", "lumisection": 175, "pileup": 58.842745, "events_l1a": 2227203, "rate": 1865.389788659389, "events": 43483, "prescale": 51},
{"runnumber": 362616, "start_time": "2022-11-24T08:45:47Z", "end_time": "2022-11-24T11:04:40Z", "lumisection": 176, "pileup": 58.800907, "events_l1a": 2227561, "rate": 1851.91941187676, "events": 43169, "prescale": 52},
{"runnumber": 362616, "start_time": "2022-11-24T08:45:47Z", "end_time": "2022-11-24T11:04:40Z", "lumisection": 177, "pileup": 58.772237, "events_l1a": 2237361, "rate": 1880.576137006684, "events": 43837, "prescale": 51},
{"runnumber": 362616, "start_time": "2022-11-24T08:45:47Z", "end_time": "2022-11-24T11:04:40Z", "lumisection": 178, "pileup": 58.780874, "events_l1a": 2242990, "rate": 1874.3557400847692, "events": 43692, "prescale": 51},
{"runnumber": 362616, "start_time": "2022-11-24T08:45:47Z", "end_time": "2022-11-24T11:04:40Z", "lumisection": 179, "pileup": 58.776434, "events_l1a": 2233593, "rate": 1869.1649261016546, "events": 43571, "prescale": 51},
{"runnumber": 362616, "start_time": "2022-11-24T08:45:47Z", "end_time": "2022-11-24T11:04:40Z", "lumisection": 180, "pileup": 58.789862, "events_l1a": 2242180, "rate": 1873.3261571459693, "events": 43668, "prescale": 51},
{"runnumber": 362616, "start_time": "2022-11-24T08:45:47Z", "end_time": "2022-11-24T11:04:40Z", "lumisection": 181, "pileup": 58.755172, "events_l1a": 2235770, "rate": 1871.1382934010203, "events": 43617, "prescale": 51},
{"runnumber": 362616, "start_time": "2022-11-24T08:45:47Z", "end_time": "2022-11-24T11:04:40Z", "lumisection": 182, "pileup": 58.729441, "events_l1a": 2235999, "rate": 1875.514020890919, "events": 43719, "prescale": 51},
{"runnumber": 362616, "start_time": "2022-11-24T08:45:47Z", "end_time": "2022-11-24T11:04:40Z", "lumisection": 183, "pileup": 58.711184, "events_l1a": 2244158, "rate": 1870.7950990880872, "events": 43609, "prescale": 51},
{"runnumber": 362616, "start_time": "2022-11-24T08:45:47Z", "end_time": "2022-11-24T11:04:40Z", "lumisection": 184, "pileup": 58.672086, "events_l1a": 2239599, "rate": 1876.1575102276688, "events": 43734, "prescale": 51},
{"runnumber": 362616, "start_time": "2022-11-24T08:45:47Z", "end_time": "2022-11-24T11:04:40Z", "lumisection": 185, "pileup": 58.64722, "events_l1a": 2230967, "rate": 1866.8054652002386, "events": 43516, "prescale": 51},
{"runnumber": 362616, "start_time": "2022-11-24T08:45:47Z", "end_time": "2022-11-24T11:04:40Z", "lumisection": 186, "pileup": 58.620979, "events_l1a": 2229243, "rate": 1864.403105009706, "events": 43460, "prescale": 51},
{"runnumber": 362616, "start_time": "2022-11-24T08:45:47Z", "end_time": "2022-11-24T11:04:40Z", "lumisection": 187, "pileup": 58.591114, "events_l1a": 2232802, "rate": 1867.2773573805218, "events": 43527, "prescale": 51},
{"runnumber": 362616, "start_time": "2022-11-24T08:45:47Z", "end_time": "2022-11-24T11:04:40Z", "lumisection": 188, "pileup": 58.542252, "events_l1a": 2223723, "rate": 1858.8690967136579, "events": 43331, "prescale": 51},
{"runnumber": 362616, "start_time": "2022-11-24T08:45:47Z", "end_time": "2022-11-24T11:04:40Z", "lumisection": 189, "pileup": 58.483142, "events_l1a": 2215888, "rate": 1852.219706900577, "events": 43176, "prescale": 51},
{"runnumber": 362616, "start_time": "2022-11-24T08:45:47Z", "end_time": "2022-11-24T11:04:40Z", "lumisection": 190, "pileup": 58.449911, "events_l1a": 998525, "rate": 837.5228214244015, "events": 19523, "prescale": 51},
{"runnumber": 362616, "start_time": "2022-11-24T08:45:47Z", "end_time": "2022-11-24T11:04:40Z", "lumisection": 192, "pileup": 56.948954, "events_l1a": 441276, "rate": 363.2711802398111, "events": 8468, "prescale": 52},
{"runnumber": 362616, "start_time": "2022-11-24T08:45:47Z", "end_time": "2022-11-24T11:04:40Z", "lumisection": 193, "pileup": 57.118319, "events_l1a": 2163073, "rate": 1810.0926049880243, "events": 42194, "prescale": 51},
{"runnumber": 362616, "start_time": "2022-11-24T08:45:47Z", "end_time": "2022-11-24T11:04:40Z", "lumisection": 194, "pileup": 57.868575, "events_l1a": 2165109, "rate": 1814.4683324779228, "events": 42296, "prescale": 51},
{"runnumber": 362616, "start_time": "2022-11-24T08:45:47Z", "end_time": "2022-11-24T11:04:40Z", "lumisection": 195, "pileup": 54.745922, "events_l1a": 2048625, "rate": 1706.4908217713094, "events": 39779, "prescale": 52},
{"runnumber": 362616, "start_time": "2022-11-24T08:45:47Z", "end_time": "2022-11-24T11:04:40Z", "lumisection": 196, "pileup": 55.175151, "events_l1a": 2078528, "rate": 1737.8931014046984, "events": 40511, "prescale": 51},
{"runnumber": 362616, "start_time": "2022-11-24T08:45:47Z", "end_time": "2022-11-24T11:04:40Z", "lumisection": 197, "pileup": 58.447283, "events_l1a": 2228607, "rate": 1861.65755050624, "events": 43396, "prescale": 51},
{"runnumber": 362616, "start_time": "2022-11-24T08:45:47Z", "end_time": "2022-11-24T11:04:40Z", "lumisection": 198, "pileup": 58.530507, "events_l1a": 2229902, "rate": 1865.9045801287887, "events": 43495, "prescale": 51},
{"runnumber": 362616, "start_time": "2022-11-24T08:45:47Z", "end_time": "2022-11-24T11:04:40Z", "lumisection": 199, "pileup": 58.526315, "events_l1a": 2223569, "rate": 1859.6412839177574, "events": 43349, "prescale": 51},
{"runnumber": 362616, "start_time": "2022-11-24T08:45:47Z", "end_time": "2022-11-24T11:04:40Z", "lumisection": 200, "pileup": 58.505163, "events_l1a": 2232745, "rate": 1867.4489545369884, "events": 43531, "prescale": 51},
{"runnumber": 362616, "start_time": "2022-11-24T08:45:47Z", "end_time": "2022-11-24T11:04:40Z", "lumisection": 201, "pileup": 58.470197, "events_l1a": 2200489, "rate": 1839.7360137676312, "events": 42885, "prescale": 51},
{"runnumber": 362616, "start_time": "2022-11-24T08:45:47Z", "end_time": "2022-11-24T11:04:40Z", "lumisection": 202, "pileup": 58.442488, "events_l1a": 2237499, "rate": 1873.3261571459695, "events": 43668, "prescale": 51},
{"runnumber": 362616, "start_time": "2022-11-24T08:45:47Z", "end_time": "2022-11-24T11:04:40Z", "lumisection": 203, "pileup": 58.417905, "events_l1a": 2212286, "rate": 1849.9031452882775, "events": 43122, "prescale": 51},
{"runnumber": 362616, "start_time": "2022-11-24T08:45:47Z", "end_time": "2022-11-24T11:04:40Z", "lumisection": 204, "pileup": 58.394917, "events_l1a": 2221696, "rate": 1859.6841832068744, "events": 43350, "prescale": 51},
{"runnumber": 362616, "start_time": "2022-11-24T08:45:47Z", "end_time": "2022-11-24T11:04:40Z", "lumisection": 205, "pileup": 58.366575, "events_l1a": 2225028, "rate": 1856.9815279925253, "events": 43287, "prescale": 51},
{"runnumber": 362616, "start_time": "2022-11-24T08:45:47Z", "end_time": "2022-11-24T11:04:40Z", "lumisection": 206, "pileup": 58.349115, "events_l1a": 2222409, "rate": 1860.070276808924, "events": 43359, "prescale": 51},
{"runnumber": 362616, "start_time": "2022-11-24T08:45:47Z", "end_time": "2022-11-24T11:04:40Z", "lumisection": 207, "pileup": 58.315028, "events_l1a": 1795109, "rate": 1502.0328098413447, "events": 35013, "prescale": 51},
{"runnumber": 362616, "start_time": "2022-11-24T08:45:47Z", "end_time": "2022-11-24T11:04:40Z", "lumisection": 208, "pileup": 58.302011, "events_l1a": 2227046, "rate": 1863.0303277579733, "events": 43428, "prescale": 51},
{"runnumber": 362616, "start_time": "2022-11-24T08:45:47Z", "end_time": "2022-11-24T11:04:40Z", "lumisection": 209, "pileup": 59.785131, "events_l1a": 2283770, "rate": 1908.589372799858, "events": 44490, "prescale": 51},
{"runnumber": 362616, "start_time": "2022-11-24T08:45:47Z", "end_time": "2022-11-24T11:04:40Z", "lumisection": 210, "pileup": 61.367398, "events_l1a": 2327417, "rate": 1950.2874818212438, "events": 45462, "prescale": 51},
{"runnumber": 362616, "start_time": "2022-11-24T08:45:47Z", "end_time": "2022-11-24T11:04:40Z", "lumisection": 211, "pileup": 61.342948, "events_l1a": 2332124, "rate": 1953.3762306376425, "events": 45534, "prescale": 51},
{"runnumber": 362616, "start_time": "2022-11-24T08:45:47Z", "end_time": "2022-11-24T11:04:40Z", "lumisection": 212, "pileup": 61.322808, "events_l1a": 2335849, "rate": 1957.3229652363748, "events": 45626, "prescale": 51},
{"runnumber": 362616, "start_time": "2022-11-24T08:45:47Z", "end_time": "2022-11-24T11:04:40Z", "lumisection": 213, "pileup": 61.288202, "events_l1a": 2335292, "rate": 1956.2933822975754, "events": 45602, "prescale": 51},
{"runnumber": 362616, "start_time": "2022-11-24T08:45:47Z", "end_time": "2022-11-24T11:04:40Z", "lumisection": 214, "pileup": 61.244454, "events_l1a": 2319710, "rate": 1946.0404521986952, "events": 45363, "prescale": 51},
{"runnumber": 362616, "start_time": "2022-11-24T08:45:47Z", "end_time": "2022-11-24T11:04:40Z", "lumisection": 215, "pileup": 61.184988, "events_l1a": 2315721, "rate": 1937.5463929535983, "events": 45165, "prescale": 51},
{"runnumber": 362616, "start_time": "2022-11-24T08:45:47Z", "end_time": "2022-11-24T11:04:40Z", "lumisection": 216, "pileup": 61.136162, "events_l1a": 2318870, "rate": 1944.1957827666795, "events": 45320, "prescale": 51},
{"runnumber": 362616, "start_time": "2022-11-24T08:45:47Z", "end_time": "2022-11-24T11:04:40Z", "lumisection": 217, "pileup": 61.088775, "events_l1a": 698847, "rate": 585.4036992858363, "events": 13646, "prescale": 51},
{"runnumber": 362616, "start_time": "2022-11-24T08:45:47Z", "end_time": "2022-11-24T11:04:40Z", "lumisection": 218, "pileup": 61.076729, "events_l1a": 2316162, "rate": 1935.0582341848321, "events": 45107, "prescale": 51},
{"runnumber": 362616, "start_time": "2022-11-24T08:45:47Z", "end_time": "2022-11-24T11:04:40Z", "lumisection": 219, "pileup": 61.050321, "events_l1a": 2332757, "rate": 1955.0922022023087, "events": 45574, "prescale": 51},
{"runnumber": 362616, "start_time": "2022-11-24T08:45:47Z", "end_time": "2022-11-24T11:04:40Z", "lumisection": 220, "pileup": 61.034381, "events_l1a": 2328900, "rate": 1951.574460494743, "events": 45492, "prescale": 51},
{"runnumber": 362616, "start_time": "2022-11-24T08:45:47Z", "end_time": "2022-11-24T11:04:40Z", "lumisection": 221, "pileup": 60.992886, "events_l1a": 2329084, "rate": 1954.7490078893757, "events": 45566, "prescale": 51},
{"runnumber": 362616, "start_time": "2022-11-24T08:45:47Z", "end_time": "2022-11-24T11:04:40Z", "lumisection": 222, "pileup": 60.943778, "events_l1a": 2314138, "rate": 1931.8836867902, "events": 45033, "prescale": 51},
{"runnumber": 362616, "start_time": "2022-11-24T08:45:47Z", "end_time": "2022-11-24T11:04:40Z", "lumisection": 223, "pileup": 60.898643, "events_l1a": 2287796, "rate": 1918.1130149837547, "events": 44712, "prescale": 51},
{"runnumber": 362616, "start_time": "2022-11-24T08:45:47Z", "end_time": "2022-11-24T11:04:40Z", "lumisection": 224, "pileup": 60.867598, "events_l1a": 2305881, "rate": 1932.226881103133, "events": 45041, "prescale": 51},
{"runnumber": 362616, "start_time": "2022-11-24T08:45:47Z", "end_time": "2022-11-24T11:04:40Z", "lumisection": 225, "pileup": 60.836285, "events_l1a": 2309336, "rate": 1934.1144498242659, "events": 45085, "prescale": 51},
{"runnumber": 362616, "start_time": "2022-11-24T08:45:47Z", "end_time": "2022-11-24T11:04:40Z", "lumisection": 226, "pileup": 60.834761, "events_l1a": 2321048, "rate": 1942.2653147564297, "events": 45275, "prescale": 51},
{"runnumber": 362616, "start_time": "2022-11-24T08:45:47Z", "end_time": "2022-11-24T11:04:40Z", "lumisection": 227, "pileup": 60.824693, "events_l1a": 2323165, "rate": 1950.7164747124104, "events": 45472, "prescale": 51},
{"runnumber": 362616, "start_time": "2022-11-24T08:45:47Z", "end_time": "2022-11-24T11:04:40Z", "lumisection": 228, "pileup": 60.803538, "events_l1a": 2315948, "rate": 1936.9458029059647, "events": 45151, "prescale": 51},
{"runnumber": 362616, "start_time": "2022-11-24T08:45:47Z", "end_time": "2022-11-24T11:04:40Z", "lumisection": 229, "pileup": 60.763701, "events_l1a": 2326660, "rate": 1942.951703382296, "events": 45291, "prescale": 51},
{"runnumber": 362616, "start_time": "2022-11-24T08:45:47Z", "end_time": "2022-11-24T11:04:40Z", "lumisection": 230, "pileup": 60.728374, "events_l1a": 2302882, "rate": 1926.3067792050351, "events": 44903, "prescale": 51},
{"runnumber": 362616, "start_time": "2022-11-24T08:45:47Z", "end_time": "2022-11-24T11:04:40Z", "lumisection": 231, "pileup": 60.687408, "events_l1a": 2314117, "rate": 1943.294897695229, "events": 45299, "prescale": 51},
{"runnumber": 362616, "start_time": "2022-11-24T08:45:47Z", "end_time": "2022-11-24T11:04:40Z", "lumisection": 232, "pileup": 60.66244, "events_l1a": 2310896, "rate": 1931.5833917663836, "events": 45026, "prescale": 51},
{"runnumber": 362616, "start_time": "2022-11-24T08:45:47Z", "end_time": "2022-11-24T11:04:40Z", "lumisection": 233, "pileup": 60.640662, "events_l1a": 2317185, "rate": 1944.4102792122626, "events": 45325, "prescale": 51},
{"runnumber": 362616, "start_time": "2022-11-24T08:45:47Z", "end_time": "2022-11-24T11:04:40Z", "lumisection": 234, "pileup": 60.619663, "events_l1a": 2164404, "rate": 1809.1917199165746, "events": 42173, "prescale": 51},
{"runnumber": 362616, "start_time": "2022-11-24T08:45:47Z", "end_time": "2022-11-24T11:04:40Z", "lumisection": 235, "pileup": 60.587866, "events_l1a": 2095365, "rate": 1751.8353703676105, "events": 40836, "prescale": 51},
{"runnumber": 362616, "start_time": "2022-11-24T08:45:47Z", "end_time": "2022-11-24T11:04:40Z", "lumisection": 236, "pileup": 60.562804, "events_l1a": 2205113, "rate": 1849.8173467100444, "events": 43120, "prescale": 51},
{"runnumber": 362616, "start_time": "2022-11-24T08:45:47Z", "end_time": "2022-11-24T11:04:40Z", "lumisection": 237, "pileup": 60.518801, "events_l1a": 2198168, "rate": 1839.0067258526478, "events": 42868, "prescale": 51},
{"runnumber": 362616, "start_time": "2022-11-24T08:45:47Z", "end_time": "2022-11-24T11:04:40Z", "lumisection": 238, "pileup": 60.484638, "events_l1a": 2307513, "rate": 1931.75498892285, "events": 45030, "prescale": 51},
{"runnumber": 362616, "start_time": "2022-11-24T08:45:47Z", "end_time": "2022-11-24T11:04:40Z", "lumisection": 239, "pileup": 60.450376, "events_l1a": 1752246, "rate": 1472.4751996399714, "events": 34324, "prescale": 51},
{"runnumber": 362616, "start_time": "2022-11-24T08:45:47Z", "end_time": "2022-11-24T11:04:40Z", "lumisection": 240, "pileup": 60.428982, "events_l1a": 1274259, "rate": 1063.1301828888754, "events": 24782, "prescale": 51},
{"runnumber": 362616, "start_time": "2022-11-24T08:45:47Z", "end_time": "2022-11-24T11:04:40Z", "lumisection": 241, "pileup": 60.406017, "events_l1a": 2147364, "rate": 1801.6843443211606, "events": 41998, "prescale": 51},
{"runnumber": 362616, "start_time": "2022-11-24T08:45:47Z", "end_time": "2022-11-24T11:04:40Z", "lumisection": 242, "pileup": 60.372101, "events_l1a": 2297937, "rate": 1919.914785126654, "events": 44754, "prescale": 51},
{"runnumber": 362616, "start_time": "2022-11-24T08:45:47Z", "end_time": "2022-11-24T11:04:40Z", "lumisection": 243, "pileup": 60.34785, "events_l1a": 2290070, "rate": 1915.3245611911723, "events": 44647, "prescale": 51},
{"runnumber": 362616, "start_time": "2022-11-24T08:45:47Z", "end_time": "2022-11-24T11:04:40Z", "lumisection": 244, "pileup": 60.307148, "events_l1a": 2278343, "rate": 1910.1766464971738, "events": 44527, "prescale": 51},
{"runnumber": 362616, "start_time": "2022-11-24T08:45:47Z", "end_time": "2022-11-24T11:04:40Z", "lumisection": 245, "pileup": 60.283494, "events_l1a": 2307083, "rate": 1929.1381322867342, "events": 44969, "prescale": 51},
{"runnumber": 362616, "start_time": "2022-11-24T08:45:47Z", "end_time": "2022-11-24T11:04:40Z", "lumisection": 246, "pileup": 60.245584, "events_l1a": 2299640, "rate": 1929.3526287323173, "events": 44974, "prescale": 51},
{"runnumber": 362616, "start_time": "2022-11-24T08:45:47Z", "end_time": "2022-11-24T11:04:40Z", "lumisection": 247, "pileup": 60.224851, "events_l1a": 2265486, "rate": 1896.749169003662, "events": 44214, "prescale": 51},
{"runnumber": 362616, "start_time": "2022-11-24T08:45:47Z", "end_time": "2022-11-24T11:04:40Z", "lumisection": 248, "pileup": 60.179706, "events_l1a": 2276749, "rate": 1903.870450997026, "events": 44380, "prescale": 51},
{"runnumber": 362616, "start_time": "2022-11-24T08:45:47Z", "end_time": "2022-11-24T11:04:40Z", "lumisection": 249, "pileup": 60.148793, "events_l1a": 2283209, "rate": 1908.6751713780907, "events": 44492, "prescale": 51},
{"runnumber": 362616, "start_time": "2022-11-24T08:45:47Z", "end_time": "2022-11-24T11:04:40Z", "lumisection": 250, "pileup": 60.102369, "events_l1a": 2290690, "rate": 1918.5849071640378, "events": 44723, "prescale": 51},
{"runnumber": 362616, "start_time": "2022-11-24T08:45:47Z", "end_time": "2022-11-24T11:04:40Z", "lumisection": 251, "pileup": 60.04175, "events_l1a": 2282209, "rate": 1915.6248562149888, "events": 44654, "prescale": 51},
{"runnumber": 362616, "start_time": "2022-11-24T08:45:47Z", "end_time": "2022-11-24T11:04:40Z", "lumisection": 252, "pileup": 60.020141, "events_l1a": 2288162, "rate": 1911.0775315686237, "events": 44548, "prescale": 51},
{"runnumber": 362616, "start_time": "2022-11-24T08:45:47Z", "end_time": "2022-11-24T11:04:40Z", "lumisection": 253, "pileup": 59.994585, "events_l1a": 2265747, "rate": 1898.4222412792112, "events": 44253, "prescale": 51},
{"runnumber": 362616, "start_time": "2022-11-24T08:45:47Z", "end_time": "2022-11-24T11:04:40Z", "lumisection": 254, "pileup": 59.974201, "events_l1a": 2289618, "rate": 1918.413310007571, "events": 44719, "prescale": 51},
{"runnumber": 362616, "start_time": "2022-11-24T08:45:47Z", "end_time": "2022-11-24T11:04:40Z", "lumisection": 255, "pileup": 59.936035, "events_l1a": 2293215, "rate": 1921.2446630892705, "events": 44785, "prescale": 51},
{"runnumber": 362616, "start_time": "2022-11-24T08:45:47Z", "end_time": "2022-11-24T11:04:40Z", "lumisection": 256, "pileup": 59.898361, "events_l1a": 2287593, "rate": 1912.3216109530063, "events": 44577, "prescale": 51},
{"runnumber": 362616, "start_time": "2022-11-24T08:45:47Z", "end_time": "2022-11-24T11:04:40Z", "lumisection": 257, "pileup": 59.856038, "events_l1a": 2293758, "rate": 1919.056799344321, "events": 44734, "prescale": 51},
{"runnumber": 362616, "start_time": "2022-11-24T08:45:47Z", "end_time": "2022-11-24T11:04:40Z", "lumisection": 258, "pileup": 59.807661, "events_l1a": 2288906, "rate": 1916.826036310255, "events": 44682, "prescale": 51},
{"runnumber": 362616, "start_time": "2022-11-24T08:45:47Z", "end_time": "2022-11-24T11:04:40Z", "lumisection": 259, "pileup": 59.777769, "events_l1a": 2281155, "rate": 1906.229911898442, "events": 44435, "prescale": 51},
{"runnumber": 362616, "start_time": "2022-11-24T08:45:47Z", "end_time": "2022-11-24T11:04:40Z", "lumisection": 260, "pileup": 59.748577, "events_l1a": 2212801, "rate": 1855.6516500299092, "events": 43256, "prescale": 51},
{"runnumber": 362616, "start_time": "2022-11-24T08:45:47Z", "end_time": "2022-11-24T11:04:40Z", "lumisection": 261, "pileup": 59.738754, "events_l1a": 2278940, "rate": 1908.8038692454413, "events": 44495, "prescale": 51},
{"runnumber": 362616, "start_time": "2022-11-24T08:45:47Z", "end_time": "2022-11-24T11:04:40Z", "lumisection": 262, "pileup": 59.705461, "events_l1a": 2267609, "rate": 1895.0331974389956, "events": 44174, "prescale": 51},
{"runnumber": 362616, "start_time": "2022-11-24T08:45:47Z", "end_time": "2022-11-24T11:04:40Z", "lumisection": 263, "pileup": 59.670584, "events_l1a": 2269153, "rate": 1902.4547744561767, "events": 44347, "prescale": 51},
{"runnumber": 362616, "start_time": "2022-11-24T08:45:47Z", "end_time": "2022-11-24T11:04:40Z", "lumisection": 264, "pileup": 59.624677, "events_l1a": 2261067, "rate": 1887.4400232653484, "events": 43997, "prescale": 51},
{"runnumber": 362616, "start_time": "2022-11-24T08:45:47Z", "end_time": "2022-11-24T11:04:40Z", "lumisection": 265, "pileup": 59.570819, "events_l1a": 2255051, "rate": 1886.925231795948, "events": 43985, "prescale": 51},
{"runnumber": 362616, "start_time": "2022-11-24T08:45:47Z", "end_time": "2022-11-24T11:04:40Z", "lumisection": 266, "pileup": 59.51846, "events_l1a": 2257654, "rate": 1888.5554047823814, "events": 44023, "prescale": 51},
{"runnumber": 362616, "start_time": "2022-11-24T08:45:47Z", "end_time": "2022-11-24T11:04:40Z", "lumisection": 267, "pileup": 59.487846, "events_l1a": 2248522, "rate": 1887.096828952415, "events": 43989, "prescale": 51},
{"runnumber": 362616, "start_time": "2022-11-24T08:45:47Z", "end_time": "2022-11-24T11:04:40Z", "lumisection": 268, "pileup": 59.455666, "events_l1a": 2269604, "rate": 1894.8187009934127, "events": 44169, "prescale": 51},
{"runnumber": 362616, "start_time": "2022-11-24T08:45:47Z", "end_time": "2022-11-24T11:04:40Z", "lumisection": 269, "pileup": 59.410251, "events_l1a": 2270039, "rate": 1899.2802270615443, "events": 44273, "prescale": 51},
{"runnumber": 362616, "start_time": "2022-11-24T08:45:47Z", "end_time": "2022-11-24T11:04:40Z", "lumisection": 270, "pileup": 59.364255, "events_l1a": 2259475, "rate": 1893.2314272960964, "events": 44132, "prescale": 51},
{"runnumber": 362616, "start_time": "2022-11-24T08:45:47Z", "end_time": "2022-11-24T11:04:40Z", "lumisection": 271, "pileup": 59.339561, "events_l1a": 2258796, "rate": 1890.1426784796972, "events": 44060, "prescale": 51},
{"runnumber": 362616, "start_time": "2022-11-24T08:45:47Z", "end_time": "2022-11-24T11:04:40Z", "lumisection": 272, "pileup": 59.295789, "events_l1a": 2219954, "rate": 1854.8365635366927, "events": 43237, "prescale": 51},
{"runnumber": 362616, "start_time": "2022-11-24T08:45:47Z", "end_time": "2022-11-24T11:04:40Z", "lumisection": 273, "pileup": 59.264411, "events_l1a": 2254178, "rate": 1888.1693111803315, "events": 44014, "prescale": 51},
{"runnumber": 362616, "start_time": "2022-11-24T08:45:47Z", "end_time": "2022-11-24T11:04:40Z", "lumisection": 274, "pileup": 59.209884, "events_l1a": 2257736, "rate": 1888.855699806198, "events": 44030, "prescale": 51},
{"runnumber": 362616, "start_time": "2022-11-24T08:45:47Z", "end_time": "2022-11-24T11:04:40Z", "lumisection": 275, "pileup": 59.165974, "events_l1a": 2250083, "rate": 1883.1500943536832, "events": 43897, "prescale": 51},
{"runnumber": 362616, "start_time": "2022-11-24T08:45:47Z", "end_time": "2022-11-24T11:04:40Z", "lumisection": 276, "pileup": 59.141367, "events_l1a": 2251495, "rate": 1878.3882732617346, "events": 43786, "prescale": 51},
{"runnumber": 362616, "start_time": "2022-11-24T08:45:47Z", "end_time": "2022-11-24T11:04:40Z", "lumisection": 277, "pileup": 59.100684, "events_l1a": 2252391, "rate": 1890.914865683797, "events": 44078, "prescale": 51},
{"runnumber": 362616, "start_time": "2022-11-24T08:45:47Z", "end_time": "2022-11-24T11:04:40Z", "lumisection": 278, "pileup": 59.069625, "events_l1a": 2255644, "rate": 1884.522871605416, "events": 43929, "prescale": 51},
{"runnumber": 362616, "start_time": "2022-11-24T08:45:47Z", "end_time": "2022-11-24T11:04:40Z", "lumisection": 279, "pileup": 58.347121, "events_l1a": 2251112, "rate": 1883.922281557783, "events": 43915, "prescale": 51},
{"runnumber": 362616, "start_time": "2022-11-24T08:45:47Z", "end_time": "2022-11-24T11:04:40Z", "lumisection": 280, "pileup": 59.090234, "events_l1a": 2241814, "rate": 1871.1811926901369, "events": 43618, "prescale": 51},
{"runnumber": 362616, "start_time": "2022-11-24T08:45:47Z", "end_time": "2022-11-24T11:04:40Z", "lumisection": 281, "pileup": 59.050023, "events_l1a": 2234969, "rate": 1866.5051701764219, "events": 43509, "prescale": 51},
{"runnumber": 362616, "start_time": "2022-11-24T08:45:47Z", "end_time": "2022-11-24T11:04:40Z", "lumisection": 282, "pileup": 59.027564, "events_l1a": 2242756, "rate": 1880.6190362958002, "events": 43838, "prescale": 51},
{"runnumber": 362616, "start_time": "2022-11-24T08:45:47Z", "end_time": "2022-11-24T11:04:40Z", "lumisection": 283, "pileup": 58.992636, "events_l1a": 2216719, "rate": 1859.5125860504077, "events": 43346, "prescale": 51},
{"runnumber": 362616, "start_time": "2022-11-24T08:45:47Z", "end_time": "2022-11-24T11:04:40Z", "lumisection": 284, "pileup": 58.937564, "events_l1a": 2228785, "rate": 1858.568801689841, "events": 43324, "prescale": 51},
{"runnumber": 362616, "start_time": "2022-11-24T08:45:47Z", "end_time": "2022-11-24T11:04:40Z", "lumisection": 285, "pileup": 58.879053, "events_l1a": 2226835, "rate": 1864.188608564123, "events": 43455, "prescale": 51},
{"runnumber": 362616, "start_time": "2022-11-24T08:45:47Z", "end_time": "2022-11-24T11:04:40Z", "lumisection": 286, "pileup": 58.828773, "events_l1a": 2219956, "rate": 1859.7699817851078, "events": 43352, "prescale": 51},
{"runnumber": 362616, "start_time": "2022-11-24T08:45:47Z", "end_time": "2022-11-24T11:04:40Z", "lumisection": 287, "pileup": 58.804745, "events_l1a": 2234383, "rate": 1869.8942140166373, "events": 43588, "prescale": 51},
{"runnumber": 362616, "start_time": "2022-11-24T08:45:47Z", "end_time": "2022-11-24T11:04:40Z", "lumisection": 288, "pileup": 58.759597, "events_l1a": 2234878, "rate": 1867.5347531152217, "events": 43533, "prescale": 51},
{"runnumber": 362616, "start_time": "2022-11-24T08:45:47Z", "end_time": "2022-11-24T11:04:40Z", "lumisection": 289, "pileup": 58.713893, "events_l1a": 2234303, "rate": 1871.2240919792537, "events": 43619, "prescale": 51},
{"runnumber": 362616, "start_time": "2022-11-24T08:45:47Z", "end_time": "2022-11-24T11:04:40Z", "lumisection": 290, "pileup": 58.667503, "events_l1a": 2230865, "rate": 1861.7433490844735, "events": 43398, "prescale": 51},
{"runnumber": 362616, "start_time": "2022-11-24T08:45:47Z", "end_time": "2022-11-24T11:04:40Z", "lumisection": 291, "pileup": 58.594301, "events_l1a": 2225308, "rate": 1863.287723492673, "events": 43434, "prescale": 51},
{"runnumber": 362616, "start_time": "2022-11-24T08:45:47Z", "end_time": "2022-11-24T11:04:40Z", "lumisection": 292, "pileup": 58.566123, "events_l1a": 2224871, "rate": 1862.5155362885735, "events": 43416, "prescale": 51},
{"runnumber": 362616, "start_time": "2022-11-24T08:45:47Z", "end_time": "2022-11-24T11:04:40Z", "lumisection": 293, "pileup": 58.489283, "events_l1a": 1679037, "rate": 1402.077466199545, "events": 32683, "prescale": 51},
{"runnumber": 362616, "start_time": "2022-11-24T08:45:47Z", "end_time": "2022-11-24T11:04:40Z", "lumisection": 294, "pileup": 58.483599, "events_l1a": 2220255, "rate": 1857.7108159075083, "events": 43304, "prescale": 51},
{"runnumber": 362616, "start_time": "2022-11-24T08:45:47Z", "end_time": "2022-11-24T11:04:40Z", "lumisection": 295, "pileup": 58.425557, "events_l1a": 2212017, "rate": 1848.4874687474282, "events": 43089, "prescale": 51},
{"runnumber": 362616, "start_time": "2022-11-24T08:45:47Z", "end_time": "2022-11-24T11:04:40Z", "lumisection": 296, "pileup": 58.369361, "events_l1a": 2224336, "rate": 1857.7108159075083, "events": 43304, "prescale": 51},
{"runnumber": 362616, "start_time": "2022-11-24T08:45:47Z", "end_time": "2022-11-24T11:04:40Z", "lumisection": 297, "pileup": 58.322075, "events_l1a": 2159095, "rate": 1808.5482305798248, "events": 42158, "prescale": 51},
{"runnumber": 362616, "start_time": "2022-11-24T08:45:47Z", "end_time": "2022-11-24T11:04:40Z", "lumisection": 298, "pileup": 58.290104, "events_l1a": 2209143, "rate": 1845.3987199310293, "events": 43017, "prescale": 51},
{"runnumber": 362616, "start_time": "2022-11-24T08:45:47Z", "end_time": "2022-11-24T11:04:40Z", "lumisection": 299, "pileup": 58.292607, "events_l1a": 2201289, "rate": 1843.6398490772465, "events": 42976, "prescale": 51},
{"runnumber": 362616, "start_time": "2022-11-24T08:45:47Z", "end_time": "2022-11-24T11:04:40Z", "lumisection": 300, "pileup": 60.034627, "events_l1a": 2279439, "rate": 1909.3186607148407, "events": 44507, "prescale": 51},
{"runnumber": 362616, "start_time": "2022-11-24T08:45:47Z", "end_time": "2022-11-24T11:04:40Z", "lumisection": 301, "pileup": 61.645196, "events_l1a": 2313747, "rate": 1939.8200552767805, "events": 45218, "prescale": 51},
{"runnumber": 362616, "start_time": "2022-11-24T08:45:47Z", "end_time": "2022-11-24T11:04:40Z", "lumisection": 302, "pileup": 61.617108, "events_l1a": 2331161, "rate": 1950.630676134177, "events": 45470, "prescale": 51},
{"runnumber": 362616, "start_time": "2022-11-24T08:45:47Z", "end_time": "2022-11-24T11:04:40Z", "lumisection": 303, "pileup": 61.573273, "events_l1a": 2324460, "rate": 1945.2253657054787, "events": 45344, "prescale": 51},
{"runnumber": 362616, "start_time": "2022-11-24T08:45:47Z", "end_time": "2022-11-24T11:04:40Z", "lumisection": 304, "pileup": 61.53546, "events_l1a": 2317836, "rate": 1938.5759758923978, "events": 45189, "prescale": 51},
{"runnumber": 362616, "start_time": "2022-11-24T08:45:47Z", "end_time": "2022-11-24T11:04:40Z", "lumisection": 305, "pileup": 61.51759, "events_l1a": 2324552, "rate": 1950.0300860865439, "events": 45456, "prescale": 51},
{"runnumber": 362616, "start_time": "2022-11-24T08:45:47Z", "end_time": "2022-11-24T11:04:40Z", "lumisection": 306, "pileup": 61.467066, "events_l1a": 2336595, "rate": 1957.2371666581414, "events": 45624, "prescale": 51},
{"runnumber": 362616, "start_time": "2022-11-24T08:45:47Z", "end_time": "2022-11-24T11:04:40Z", "lumisection": 307, "pileup": 61.433694, "events_l1a": 2304827, "rate": 1928.1514486370515, "events": 44946, "prescale": 51},
{"runnumber": 362616, "start_time": "2022-11-24T08:45:47Z", "end_time": "2022-11-24T11:04:40Z", "lumisection": 308, "pileup": 61.444221, "events_l1a": 2329028, "rate": 1953.3762306376425, "events": 45534, "prescale": 51},
{"runnumber": 362616, "start_time": "2022-11-24T08:45:47Z", "end_time": "2022-11-24T11:04:40Z", "lumisection": 309, "pileup": 61.437808, "events_l1a": 2325638, "rate": 1945.3969628619452, "events": 45348, "prescale": 51},
{"runnumber": 362616, "start_time": "2022-11-24T08:45:47Z", "end_time": "2022-11-24T11:04:40Z", "lumisection": 310, "pileup": 61.405137, "events_l1a": 1768888, "rate": 1485.6881806879, "events": 34632, "prescale": 51},
{"runnumber": 362616, "start_time": "2022-11-24T08:45:47Z", "end_time": "2022-11-24T11:04:40Z", "lumisection": 311, "pileup": 61.387512, "events_l1a": 2187624, "rate": 1830.5555658966673, "events": 42671, "prescale": 51},
{"runnumber": 362616, "start_time": "2022-11-24T08:45:47Z", "end_time": "2022-11-24T11:04:40Z", "lumisection": 312, "pileup": 61.327908, "events_l1a": 2250398, "rate": 1886.5391381938985, "events": 43976, "prescale": 51},
{"runnumber": 362616, "start_time": "2022-11-24T08:45:47Z", "end_time": "2022-11-24T11:04:40Z", "lumisection": 313, "pileup": 61.293651, "events_l1a": 2242995, "rate": 1875.3424237344523, "events": 43715, "prescale": 51},
{"runnumber": 362616, "start_time": "2022-11-24T08:45:47Z", "end_time": "2022-11-24T11:04:40Z", "lumisection": 314, "pileup": 61.281192, "events_l1a": 2281860, "rate": 1912.1929130856568, "events": 44574, "prescale": 51},
{"runnumber": 362616, "start_time": "2022-11-24T08:45:47Z", "end_time": "2022-11-24T11:04:40Z", "lumisection": 315, "pileup": 61.248578, "events_l1a": 2320106, "rate": 1940.9354367938136, "events": 45244, "prescale": 51},
{"runnumber": 362616, "start_time": "2022-11-24T08:45:47Z", "end_time": "2022-11-24T11:04:40Z", "lumisection": 316, "pileup": 61.203303, "events_l1a": 2327690, "rate": 1952.2608491206097, "events": 45508, "prescale": 51},
{"runnumber": 362616, "start_time": "2022-11-24T08:45:47Z", "end_time": "2022-11-24T11:04:40Z", "lumisection": 317, "pileup": 61.164201, "events_l1a": 2270001, "rate": 1897.6500540751115, "events": 44235, "prescale": 51},
{"runnumber": 362616, "start_time": "2022-11-24T08:45:47Z", "end_time": "2022-11-24T11:04:40Z", "lumisection": 318, "pileup": 61.126052, "events_l1a": 2308904, "rate": 1933.8999533786825, "events": 45080, "prescale": 51},
{"runnumber": 362616, "start_time": "2022-11-24T08:45:47Z", "end_time": "2022-11-24T11:04:40Z", "lumisection": 319, "pileup": 61.076822, "events_l1a": 2300703, "rate": 1928.4946429499844, "events": 44954, "prescale": 51},
{"runnumber": 362616, "start_time": "2022-11-24T08:45:47Z", "end_time": "2022-11-24T11:04:40Z", "lumisection": 320, "pileup": 61.01817, "events_l1a": 2308991, "rate": 1931.9265860793166, "events": 45034, "prescale": 51},
{"runnumber": 362616, "start_time": "2022-11-24T08:45:47Z", "end_time": "2022-11-24T11:04:40Z", "lumisection": 321, "pileup": 60.996632, "events_l1a": 2296317, "rate": 1926.5641749397353, "events": 44909, "prescale": 51},
{"runnumber": 362616, "start_time": "2022-11-24T08:45:47Z", "end_time": "2022-11-24T11:04:40Z", "lumisection": 322, "pileup": 60.961331, "events_l1a": 2310624, "rate": 1929.4384273105509, "events": 44976, "prescale": 51},
{"runnumber": 362616, "start_time": "2022-11-24T08:45:47Z", "end_time": "2022-11-24T11:04:40Z", "lumisection": 323, "pileup": 60.958905, "events_l1a": 2304090, "rate": 1934.8437377392488, "events": 45102, "prescale": 51},
{"runnumber": 362616, "start_time": "2022-11-24T08:45:47Z", "end_time": "2022-11-24T11:04:40Z", "lumisection": 324, "pileup": 60.942654, "events_l1a": 2305402, "rate": 1932.52717612695, "events": 45048, "prescale": 51},
{"runnumber": 362616, "start_time": "2022-11-24T08:45:47Z", "end_time": "2022-11-24T11:04:40Z", "lumisection": 325, "pileup": 60.87822, "events_l1a": 2304671, "rate": 1927.2076642764848, "events": 44924, "prescale": 51},
{"runnumber": 362616, "start_time": "2022-11-24T08:45:47Z", "end_time": "2022-11-24T11:04:40Z", "lumisection": 326, "pileup": 60.856139, "events_l1a": 2313959, "rate": 1936.0449178345152, "events": 45130, "prescale": 51},
{"runnumber": 362616, "start_time": "2022-11-24T08:45:47Z", "end_time": "2022-11-24T11:04:40Z", "lumisection": 327, "pileup": 60.89858, "events_l1a": 2278977, "rate": 1911.5923230380236, "events": 44560, "prescale": 51},
{"runnumber": 362616, "start_time": "2022-11-24T08:45:47Z", "end_time": "2022-11-24T11:04:40Z", "lumisection": 328, "pileup": 60.924364, "events_l1a": 2275874, "rate": 1901.2535943609103, "events": 44319, "prescale": 51},
{"runnumber": 362616, "start_time": "2022-11-24T08:45:47Z", "end_time": "2022-11-24T11:04:40Z", "lumisection": 329, "pileup": 60.888568, "events_l1a": 2255176, "rate": 1887.954814734748, "events": 44009, "prescale": 51},
{"runnumber": 362616, "start_time": "2022-11-24T08:45:47Z", "end_time": "2022-11-24T11:04:40Z", "lumisection": 330, "pileup": 60.763159, "events_l1a": 2282828, "rate": 1912.0642152183068, "events": 44571, "prescale": 51},
{"runnumber": 362616, "start_time": "2022-11-24T08:45:47Z", "end_time": "2022-11-24T11:04:40Z", "lumisection": 331, "pileup": 60.771991, "events_l1a": 2305658, "rate": 1929.181031575851, "events": 44970, "prescale": 51},
{"runnumber": 362616, "start_time": "2022-11-24T08:45:47Z", "end_time": "2022-11-24T11:04:40Z", "lumisection": 332, "pileup": 60.704104, "events_l1a": 2283527, "rate": 1909.5331571604238, "events": 44512, "prescale": 51},
{"runnumber": 362616, "start_time": "2022-11-24T08:45:47Z", "end_time": "2022-11-24T11:04:40Z", "lumisection": 333, "pileup": 60.679192, "events_l1a": 2280671, "rate": 1913.5227910482727, "events": 44605, "prescale": 51},
{"runnumber": 362616, "start_time": "2022-11-24T08:45:47Z", "end_time": "2022-11-24T11:04:40Z", "lumisection": 334, "pileup": 60.601353, "events_l1a": 2296811, "rate": 1928.280146504401, "events": 44949, "prescale": 51},
{"runnumber": 362616, "start_time": "2022-11-24T08:45:47Z", "end_time": "2022-11-24T11:04:40Z", "lumisection": 335, "pileup": 60.586781, "events_l1a": 2287321, "rate": 1909.3186607148407, "events": 44507, "prescale": 51},
{"runnumber": 362616, "start_time": "2022-11-24T08:45:47Z", "end_time": "2022-11-24T11:04:40Z", "lumisection": 336, "pileup": 60.557652, "events_l1a": 2309183, "rate": 1935.7875220998155, "events": 45124, "prescale": 51},
{"runnumber": 362616, "start_time": "2022-11-24T08:45:47Z", "end_time": "2022-11-24T11:04:40Z", "lumisection": 337, "pileup": 60.529641, "events_l1a": 2306755, "rate": 1930.4251109602337, "events": 44999, "prescale": 51},
{"runnumber": 362616, "start_time": "2022-11-24T08:45:47Z", "end_time": "2022-11-24T11:04:40Z", "lumisection": 338, "pileup": 60.479961, "events_l1a": 2280789, "rate": 1910.9917329903903, "events": 44546, "prescale": 51},
{"runnumber": 362616, "start_time": "2022-11-24T08:45:47Z", "end_time": "2022-11-24T11:04:40Z", "lumisection": 339, "pileup": 59.940718, "events_l1a": 2263675, "rate": 1891.2580599967303, "events": 44086, "prescale": 51},
{"runnumber": 362616, "start_time": "2022-11-24T08:45:47Z", "end_time": "2022-11-24T11:04:40Z", "lumisection": 340, "pileup": 59.827373, "events_l1a": 2280118, "rate": 1908.5464735107412, "events": 44489, "prescale": 51},
{"runnumber": 362616, "start_time": "2022-11-24T08:45:47Z", "end_time": "2022-11-24T11:04:40Z", "lumisection": 341, "pileup": 59.83173, "events_l1a": 2274454, "rate": 1908.2032791978081, "events": 44481, "prescale": 51},
{"runnumber": 362616, "start_time": "2022-11-24T08:45:47Z", "end_time": "2022-11-24T11:04:40Z", "lumisection": 342, "pileup": 59.839038, "events_l1a": 2274984, "rate": 1902.5834723235266, "events": 44350, "prescale": 51},
{"runnumber": 362616, "start_time": "2022-11-24T08:45:47Z", "end_time": "2022-11-24T11:04:40Z", "lumisection": 343, "pileup": 59.809654, "events_l1a": 2269644, "rate": 1898.5938384356778, "events": 44257, "prescale": 51},
{"runnumber": 362616, "start_time": "2022-11-24T08:45:47Z", "end_time": "2022-11-24T11:04:40Z", "lumisection": 344, "pileup": 59.776676, "events_l1a": 2274258, "rate": 1902.7121701908766, "events": 44353, "prescale": 51},
{"runnumber": 362616, "start_time": "2022-11-24T08:45:47Z", "end_time": "2022-11-24T11:04:40Z", "lumisection": 345, "pileup": 59.739854, "events_l1a": 2274792, "rate": 1902.9266666364597, "events": 44358, "prescale": 51},
{"runnumber": 362616, "start_time": "2022-11-24T08:45:47Z", "end_time": "2022-11-24T11:04:40Z", "lumisection": 346, "pileup": 59.724654, "events_l1a": 2250645, "rate": 1887.1826275306482, "events": 43991, "prescale": 51},
{"runnumber": 362616, "start_time": "2022-11-24T08:45:47Z", "end_time": "2022-11-24T11:04:40Z", "lumisection": 347, "pileup": 59.701671, "events_l1a": 2265041, "rate": 1892.7595351158134, "events": 44121, "prescale": 51},
{"runnumber": 362616, "start_time": "2022-11-24T08:45:47Z", "end_time": "2022-11-24T11:04:40Z", "lumisection": 348, "pileup": 59.675185, "events_l1a": 2280080, "rate": 1904.8142353575925, "events": 44402, "prescale": 51},
{"runnumber": 362616, "start_time": "2022-11-24T08:45:47Z", "end_time": "2022-11-24T11:04:40Z", "lumisection": 349, "pileup": 59.695992, "events_l1a": 2277814, "rate": 1909.8763514733573, "events": 44520, "prescale": 51},
{"runnumber": 362616, "start_time": "2022-11-24T08:45:47Z", "end_time": "2022-11-24T11:04:40Z", "lumisection": 350, "pileup": 59.677878, "events_l1a": 1690196, "rate": 1409.7135396623091, "events": 32861, "prescale": 51},
{"runnumber": 362616, "start_time": "2022-11-24T08:45:47Z", "end_time": "2022-11-24T11:04:40Z", "lumisection": 351, "pileup": 59.678001, "events_l1a": 2199280, "rate": 1844.8410291725124, "events": 43004, "prescale": 51}
]
